; Super Terrible GCode Generator Mk5

; File : tux.png

; Print Speed	: 40
; Travel Speed	: 500
; Laser Power	: 255
; Lines per mm	: 5

; Total Print Distance	: 8269 mm
; Total Travel Distance	: 625 mm

; Estimated Total Time	: 208 minutes

; Print Efficiency	: 93 %

; ABSOLUTE POSITIONING
G90

; START IMAGE

G90 G1 X66.1 Y3.1 F500
M03 S255
G90 G1 X69.9 Y3.1 F40
M05
G90 G1 X70.9 Y3.3 F500
M03 S255
G90 G1 X65.3 Y3.3 F40
M05
G90 G1 X65.0 Y3.5 F500
M03 S255
G90 G1 X71.3 Y3.5 F40
M05
G90 G1 X71.9 Y3.7 F500
M03 S255
G90 G1 X64.5 Y3.7 F40
M05
G90 G1 X64.2 Y3.9 F500
M03 S255
G90 G1 X72.2 Y3.9 F40
M05
G90 G1 X72.7 Y4.1 F500
M03 S255
G90 G1 X63.8 Y4.1 F40
M05
G90 G1 X63.5 Y4.3 F500
M03 S255
G90 G1 X67.1 Y4.3 F40
M05
G90 G1 X66.0 Y4.5 F500
M03 S255
G90 G1 X63.3 Y4.5 F40
M05
G90 G1 X63.0 Y4.7 F500
M03 S255
G90 G1 X65.4 Y4.7 F40
M05
G90 G1 X65.1 Y4.9 F500
M03 S255
G90 G1 X62.8 Y4.9 F40
M05
G90 G1 X62.6 Y5.1 F500
M03 S255
G90 G1 X64.7 Y5.1 F40
M05
G90 G1 X64.4 Y5.3 F500
M03 S255
G90 G1 X62.4 Y5.3 F40
M05
G90 G1 X62.2 Y5.5 F500
M03 S255
G90 G1 X64.1 Y5.5 F40
M05
G90 G1 X63.9 Y5.7 F500
M03 S255
G90 G1 X62.1 Y5.7 F40
M05
G90 G1 X61.9 Y5.9 F500
M03 S255
G90 G1 X63.7 Y5.9 F40
M05
G90 G1 X63.5 Y6.1 F500
M03 S255
G90 G1 X61.7 Y6.1 F40
M05
G90 G1 X61.6 Y6.3 F500
M03 S255
G90 G1 X63.3 Y6.3 F40
M05
G90 G1 X63.1 Y6.5 F500
M03 S255
G90 G1 X61.4 Y6.5 F40
M05
G90 G1 X61.3 Y6.7 F500
M03 S255
G90 G1 X63.0 Y6.7 F40
M05
G90 G1 X62.8 Y6.9 F500
M03 S255
G90 G1 X61.2 Y6.9 F40
M05
G90 G1 X61.2 Y7.1 F500
M03 S255
G90 G1 X62.7 Y7.1 F40
M05
G90 G1 X62.6 Y7.3 F500
M03 S255
G90 G1 X61.1 Y7.3 F40
M05
G90 G1 X60.9 Y7.5 F500
M03 S255
G90 G1 X62.5 Y7.5 F40
M05
G90 G1 X62.4 Y7.7 F500
M03 S255
G90 G1 X60.8 Y7.7 F40
M05
G90 G1 X60.8 Y7.9 F500
M03 S255
G90 G1 X62.2 Y7.9 F40
M05
G90 G1 X62.2 Y8.1 F500
M03 S255
G90 G1 X60.7 Y8.1 F40
M05
G90 G1 X60.7 Y8.3 F500
M03 S255
G90 G1 X62.1 Y8.3 F40
M05
G90 G1 X62.0 Y8.5 F500
M03 S255
G90 G1 X57.1 Y8.5 F40
M05
G90 G1 X56.0 Y8.7 F500
M03 S255
G90 G1 X62.0 Y8.7 F40
M05
G90 G1 X61.9 Y8.9 F500
M03 S255
G90 G1 X54.3 Y8.9 F40
M05
G90 G1 X52.2 Y9.1 F500
M03 S255
G90 G1 X61.9 Y9.1 F40
M05
G90 G1 X61.9 Y9.3 F500
M03 S255
G90 G1 X40.7 Y9.3 F40
M05
G90 G1 X40.7 Y9.5 F500
M03 S255
G90 G1 X61.8 Y9.5 F40
M05
G90 G1 X61.8 Y9.7 F500
M03 S255
G90 G1 X40.8 Y9.7 F40
M05
G90 G1 X40.8 Y9.9 F500
M03 S255
G90 G1 X61.8 Y9.9 F40
M05
G90 G1 X61.8 Y10.1 F500
M03 S255
G90 G1 X40.9 Y10.1 F40
M05
G90 G1 X40.9 Y10.3 F500
M03 S255
G90 G1 X61.8 Y10.3 F40
M05
G90 G1 X61.8 Y10.5 F500
M03 S255
G90 G1 X40.9 Y10.5 F40
M05
G90 G1 X40.9 Y10.7 F500
M03 S255
G90 G1 X61.8 Y10.7 F40
M05
G90 G1 X61.8 Y10.9 F500
M03 S255
G90 G1 X41.0 Y10.9 F40
M05
G90 G1 X41.0 Y11.1 F500
M03 S255
G90 G1 X61.9 Y11.1 F40
M05
G90 G1 X61.9 Y11.3 F500
M03 S255
G90 G1 X40.9 Y11.3 F40
M05
G90 G1 X40.9 Y11.5 F500
M03 S255
G90 G1 X61.9 Y11.5 F40
M05
G90 G1 X61.9 Y11.7 F500
M03 S255
G90 G1 X40.9 Y11.7 F40
M05
G90 G1 X40.9 Y11.9 F500
M03 S255
G90 G1 X62.0 Y11.9 F40
M05
G90 G1 X62.0 Y12.1 F500
M03 S255
G90 G1 X40.8 Y12.1 F40
M05
G90 G1 X40.7 Y12.3 F500
M03 S255
G90 G1 X62.0 Y12.3 F40
M05
G90 G1 X62.0 Y12.5 F500
M03 S255
G90 G1 X40.7 Y12.5 F40
M05
G90 G1 X40.6 Y12.7 F500
M03 S255
G90 G1 X48.7 Y12.7 F40
M05
G90 G1 X46.9 Y12.9 F500
M03 S255
G90 G1 X40.5 Y12.9 F40
M05
G90 G1 X40.5 Y13.1 F500
M03 S255
G90 G1 X45.9 Y13.1 F40
M05
G90 G1 X45.2 Y13.3 F500
M03 S255
G90 G1 X40.4 Y13.3 F40
M05
G90 G1 X40.3 Y13.5 F500
M03 S255
G90 G1 X44.5 Y13.5 F40
M05
G90 G1 X44.1 Y13.7 F500
M03 S255
G90 G1 X40.2 Y13.7 F40
M05
G90 G1 X40.1 Y13.9 F500
M03 S255
G90 G1 X43.5 Y13.9 F40
M05
G90 G1 X43.0 Y14.1 F500
M03 S255
G90 G1 X40.0 Y14.1 F40
M05
G90 G1 X39.9 Y14.3 F500
M03 S255
G90 G1 X42.7 Y14.3 F40
M05
G90 G1 X42.2 Y14.5 F500
M03 S255
G90 G1 X39.7 Y14.5 F40
M05
G90 G1 X39.6 Y14.7 F500
M03 S255
G90 G1 X41.9 Y14.7 F40
M05
G90 G1 X41.6 Y14.9 F500
M03 S255
G90 G1 X39.5 Y14.9 F40
M05
G90 G1 X39.4 Y15.1 F500
M03 S255
G90 G1 X41.2 Y15.1 F40
M05
G90 G1 X40.9 Y15.3 F500
M03 S255
G90 G1 X39.2 Y15.3 F40
M05
G90 G1 X39.1 Y15.5 F500
M03 S255
G90 G1 X40.6 Y15.5 F40
M05
G90 G1 X40.5 Y15.7 F500
M03 S255
G90 G1 X39.0 Y15.7 F40
M05
G90 G1 X38.8 Y15.9 F500
M03 S255
G90 G1 X40.3 Y15.9 F40
M05
G90 G1 X40.2 Y16.1 F500
M03 S255
G90 G1 X38.7 Y16.1 F40
M05
G90 G1 X38.5 Y16.3 F500
M03 S255
G90 G1 X40.1 Y16.3 F40
M05
G90 G1 X39.9 Y16.5 F500
M03 S255
G90 G1 X38.4 Y16.5 F40
M05
G90 G1 X38.2 Y16.7 F500
M03 S255
G90 G1 X39.8 Y16.7 F40
M05
G90 G1 X39.7 Y16.9 F500
M03 S255
G90 G1 X38.1 Y16.9 F40
M05
G90 G1 X37.9 Y17.1 F500
M03 S255
G90 G1 X39.5 Y17.1 F40
M05
G90 G1 X39.3 Y17.3 F500
M03 S255
G90 G1 X37.8 Y17.3 F40
M05
G90 G1 X37.6 Y17.5 F500
M03 S255
G90 G1 X39.2 Y17.5 F40
M05
G90 G1 X39.1 Y17.7 F500
M03 S255
G90 G1 X37.5 Y17.7 F40
M05
G90 G1 X37.3 Y17.9 F500
M03 S255
G90 G1 X38.9 Y17.9 F40
M05
G90 G1 X38.7 Y18.1 F500
M03 S255
G90 G1 X37.1 Y18.1 F40
M05
G90 G1 X37.0 Y18.3 F500
M03 S255
G90 G1 X38.6 Y18.3 F40
M05
G90 G1 X38.4 Y18.5 F500
M03 S255
G90 G1 X36.8 Y18.5 F40
M05
G90 G1 X36.7 Y18.7 F500
M03 S255
G90 G1 X38.3 Y18.7 F40
M05
G90 G1 X38.1 Y18.9 F500
M03 S255
G90 G1 X36.5 Y18.9 F40
M05
G90 G1 X36.3 Y19.1 F500
M03 S255
G90 G1 X38.2 Y19.1 F40
M05
G90 G1 X39.3 Y19.3 F500
M03 S255
G90 G1 X36.2 Y19.3 F40
M05
G90 G1 X36.0 Y19.5 F500
M03 S255
G90 G1 X39.9 Y19.5 F40
M05
G90 G1 X40.2 Y19.7 F500
M03 S255
G90 G1 X35.9 Y19.7 F40
M05
G90 G1 X35.7 Y19.9 F500
M03 S255
G90 G1 X40.5 Y19.9 F40
M05
G90 G1 X40.7 Y20.1 F500
M03 S255
G90 G1 X35.5 Y20.1 F40
M05
G90 G1 X35.4 Y20.3 F500
M03 S255
G90 G1 X40.8 Y20.3 F40
M05
G90 G1 X40.9 Y20.5 F500
M03 S255
G90 G1 X35.3 Y20.5 F40
M05
G90 G1 X35.1 Y20.7 F500
M03 S255
G90 G1 X41.0 Y20.7 F40
M05
G90 G1 X41.1 Y20.9 F500
M03 S255
G90 G1 X34.9 Y20.9 F40
M05
G90 G1 X34.8 Y21.1 F500
M03 S255
G90 G1 X41.1 Y21.1 F40
M05
G90 G1 X41.2 Y21.3 F500
M03 S255
G90 G1 X34.7 Y21.3 F40
M05
G90 G1 X34.5 Y21.5 F500
M03 S255
G90 G1 X41.2 Y21.5 F40
M05
G90 G1 X41.2 Y21.7 F500
M03 S255
G90 G1 X34.4 Y21.7 F40
M05
G90 G1 X34.2 Y21.9 F500
M03 S255
G90 G1 X41.2 Y21.9 F40
M05
G90 G1 X41.2 Y22.1 F500
M03 S255
G90 G1 X34.1 Y22.1 F40
M05
G90 G1 X34.0 Y22.3 F500
M03 S255
G90 G1 X41.1 Y22.3 F40
M05
G90 G1 X41.1 Y22.5 F500
M03 S255
G90 G1 X33.8 Y22.5 F40
M05
G90 G1 X33.7 Y22.7 F500
M03 S255
G90 G1 X41.1 Y22.7 F40
M05
G90 G1 X41.0 Y22.9 F500
M03 S255
G90 G1 X33.6 Y22.9 F40
M05
G90 G1 X33.5 Y23.1 F500
M03 S255
G90 G1 X40.9 Y23.1 F40
M05
G90 G1 X40.8 Y23.3 F500
M03 S255
G90 G1 X33.4 Y23.3 F40
M05
G90 G1 X33.3 Y23.5 F500
M03 S255
G90 G1 X40.8 Y23.5 F40
M05
G90 G1 X40.7 Y23.7 F500
M03 S255
G90 G1 X33.2 Y23.7 F40
M05
G90 G1 X33.1 Y23.9 F500
M03 S255
G90 G1 X40.6 Y23.9 F40
M05
G90 G1 X40.5 Y24.1 F500
M03 S255
G90 G1 X32.9 Y24.1 F40
M05
G90 G1 X32.8 Y24.3 F500
M03 S255
G90 G1 X40.3 Y24.3 F40
M05
G90 G1 X40.2 Y24.5 F500
M03 S255
G90 G1 X32.7 Y24.5 F40
M05
G90 G1 X32.6 Y24.7 F500
M03 S255
G90 G1 X40.1 Y24.7 F40
M05
G90 G1 X40.0 Y24.9 F500
M03 S255
G90 G1 X32.5 Y24.9 F40
M05
G90 G1 X32.4 Y25.1 F500
M03 S255
G90 G1 X39.8 Y25.1 F40
M05
G90 G1 X39.7 Y25.3 F500
M03 S255
G90 G1 X32.3 Y25.3 F40
M05
G90 G1 X32.2 Y25.5 F500
M03 S255
G90 G1 X39.6 Y25.5 F40
M05
G90 G1 X39.4 Y25.7 F500
M03 S255
G90 G1 X32.1 Y25.7 F40
M05
G90 G1 X32.0 Y25.9 F500
M03 S255
G90 G1 X39.2 Y25.9 F40
M05
G90 G1 X39.1 Y26.1 F500
M03 S255
G90 G1 X31.9 Y26.1 F40
M05
G90 G1 X31.7 Y26.3 F500
M03 S255
G90 G1 X38.9 Y26.3 F40
M05
G90 G1 X38.7 Y26.5 F500
M03 S255
G90 G1 X31.6 Y26.5 F40
M05
G90 G1 X31.6 Y26.7 F500
M03 S255
G90 G1 X38.6 Y26.7 F40
M05
G90 G1 X38.4 Y26.9 F500
M03 S255
G90 G1 X31.4 Y26.9 F40
M05
G90 G1 X31.3 Y27.1 F500
M03 S255
G90 G1 X38.1 Y27.1 F40
M05
G90 G1 X38.0 Y27.3 F500
M03 S255
G90 G1 X31.2 Y27.3 F40
M05
G90 G1 X31.1 Y27.5 F500
M03 S255
G90 G1 X37.7 Y27.5 F40
M05
G90 G1 X37.5 Y27.7 F500
M03 S255
G90 G1 X31.0 Y27.7 F40
M05
G90 G1 X30.9 Y27.9 F500
M03 S255
G90 G1 X37.3 Y27.9 F40
M05
G90 G1 X37.1 Y28.1 F500
M03 S255
G90 G1 X30.8 Y28.1 F40
M05
G90 G1 X30.7 Y28.3 F500
M03 S255
G90 G1 X36.9 Y28.3 F40
M05
G90 G1 X36.6 Y28.5 F500
M03 S255
G90 G1 X30.6 Y28.5 F40
M05
G90 G1 X30.4 Y28.7 F500
M03 S255
G90 G1 X36.4 Y28.7 F40
M05
G90 G1 X36.1 Y28.9 F500
M03 S255
G90 G1 X30.3 Y28.9 F40
M05
G90 G1 X30.2 Y29.1 F500
M03 S255
G90 G1 X35.9 Y29.1 F40
M05
G90 G1 X35.6 Y29.3 F500
M03 S255
G90 G1 X30.1 Y29.3 F40
M05
G90 G1 X30.0 Y29.5 F500
M03 S255
G90 G1 X35.4 Y29.5 F40
M05
G90 G1 X35.1 Y29.7 F500
M03 S255
G90 G1 X29.9 Y29.7 F40
M05
G90 G1 X29.8 Y29.9 F500
M03 S255
G90 G1 X34.8 Y29.9 F40
M05
G90 G1 X34.5 Y30.1 F500
M03 S255
G90 G1 X29.6 Y30.1 F40
M05
G90 G1 X29.5 Y30.3 F500
M03 S255
G90 G1 X34.2 Y30.3 F40
M05
G90 G1 X34.0 Y30.5 F500
M03 S255
G90 G1 X29.3 Y30.5 F40
M05
G90 G1 X29.2 Y30.7 F500
M03 S255
G90 G1 X33.6 Y30.7 F40
M05
G90 G1 X33.4 Y30.9 F500
M03 S255
G90 G1 X29.0 Y30.9 F40
M05
G90 G1 X28.8 Y31.1 F500
M03 S255
G90 G1 X33.0 Y31.1 F40
M05
G90 G1 X32.7 Y31.3 F500
M03 S255
G90 G1 X28.6 Y31.3 F40
M05
G90 G1 X28.4 Y31.5 F500
M03 S255
G90 G1 X32.4 Y31.5 F40
M05
G90 G1 X32.1 Y31.7 F500
M03 S255
G90 G1 X28.2 Y31.7 F40
M05
G90 G1 X28.0 Y31.9 F500
M03 S255
G90 G1 X31.8 Y31.9 F40
M05
G90 G1 X31.5 Y32.1 F500
M03 S255
G90 G1 X27.7 Y32.1 F40
M05
G90 G1 X27.4 Y32.3 F500
M03 S255
G90 G1 X31.3 Y32.3 F40
M05
G90 G1 X31.0 Y32.5 F500
M03 S255
G90 G1 X27.1 Y32.5 F40
M05
G90 G1 X26.6 Y32.7 F500
M03 S255
G90 G1 X30.8 Y32.7 F40
M05
G90 G1 X30.6 Y32.9 F500
M03 S255
G90 G1 X26.2 Y32.9 F40
M05
G90 G1 X24.0 Y32.9 F500
M03 S255
G90 G1 X21.6 Y32.9 F40
M05
G90 G1 X21.7 Y33.1 F500
M03 S255
G90 G1 X30.4 Y33.1 F40
M05
G90 G1 X30.2 Y33.3 F500
M03 S255
G90 G1 X21.7 Y33.3 F40
M05
G90 G1 X21.7 Y33.5 F500
M03 S255
G90 G1 X30.0 Y33.5 F40
M05
G90 G1 X29.8 Y33.7 F500
M03 S255
G90 G1 X21.7 Y33.7 F40
M05
G90 G1 X21.7 Y33.9 F500
M03 S255
G90 G1 X29.7 Y33.9 F40
M05
G90 G1 X29.5 Y34.1 F500
M03 S255
G90 G1 X21.6 Y34.1 F40
M05
G90 G1 X21.6 Y34.3 F500
M03 S255
G90 G1 X29.3 Y34.3 F40
M05
G90 G1 X29.2 Y34.5 F500
M03 S255
G90 G1 X21.6 Y34.5 F40
M05
G90 G1 X21.6 Y34.7 F500
M03 S255
G90 G1 X29.1 Y34.7 F40
M05
G90 G1 X28.9 Y34.9 F500
M03 S255
G90 G1 X21.6 Y34.9 F40
M05
G90 G1 X21.6 Y35.1 F500
M03 S255
G90 G1 X28.8 Y35.1 F40
M05
G90 G1 X28.7 Y35.3 F500
M03 S255
G90 G1 X21.6 Y35.3 F40
M05
G90 G1 X21.6 Y35.5 F500
M03 S255
G90 G1 X28.6 Y35.5 F40
M05
G90 G1 X28.5 Y35.7 F500
M03 S255
G90 G1 X21.6 Y35.7 F40
M05
G90 G1 X21.6 Y35.9 F500
M03 S255
G90 G1 X28.4 Y35.9 F40
M05
G90 G1 X28.3 Y36.1 F500
M03 S255
G90 G1 X21.6 Y36.1 F40
M05
G90 G1 X21.6 Y36.3 F500
M03 S255
G90 G1 X28.2 Y36.3 F40
M05
G90 G1 X28.2 Y36.5 F500
M03 S255
G90 G1 X21.6 Y36.5 F40
M05
G90 G1 X21.6 Y36.7 F500
M03 S255
G90 G1 X28.1 Y36.7 F40
M05
G90 G1 X28.0 Y36.9 F500
M03 S255
G90 G1 X21.7 Y36.9 F40
M05
G90 G1 X21.7 Y37.1 F500
M03 S255
G90 G1 X28.0 Y37.1 F40
M05
G90 G1 X27.9 Y37.3 F500
M03 S255
G90 G1 X21.7 Y37.3 F40
M05
G90 G1 X21.7 Y37.5 F500
M03 S255
G90 G1 X27.8 Y37.5 F40
M05
G90 G1 X27.8 Y37.7 F500
M03 S255
G90 G1 X21.7 Y37.7 F40
M05
G90 G1 X21.7 Y37.9 F500
M03 S255
G90 G1 X27.8 Y37.9 F40
M05
G90 G1 X27.7 Y38.1 F500
M03 S255
G90 G1 X21.8 Y38.1 F40
M05
G90 G1 X21.8 Y38.3 F500
M03 S255
G90 G1 X27.7 Y38.3 F40
M05
G90 G1 X27.7 Y38.5 F500
M03 S255
G90 G1 X21.8 Y38.5 F40
M05
G90 G1 X21.8 Y38.7 F500
M03 S255
G90 G1 X27.7 Y38.7 F40
M05
G90 G1 X27.6 Y38.9 F500
M03 S255
G90 G1 X22.0 Y38.9 F40
M05
G90 G1 X22.0 Y39.1 F500
M03 S255
G90 G1 X27.6 Y39.1 F40
M05
G90 G1 X27.6 Y39.3 F500
M03 S255
G90 G1 X22.0 Y39.3 F40
M05
G90 G1 X22.0 Y39.5 F500
M03 S255
G90 G1 X27.6 Y39.5 F40
M05
G90 G1 X27.6 Y39.7 F500
M03 S255
G90 G1 X22.1 Y39.7 F40
M05
G90 G1 X22.1 Y39.9 F500
M03 S255
G90 G1 X27.6 Y39.9 F40
M05
G90 G1 X27.6 Y40.1 F500
M03 S255
G90 G1 X22.2 Y40.1 F40
M05
G90 G1 X22.2 Y40.3 F500
M03 S255
G90 G1 X27.6 Y40.3 F40
M05
G90 G1 X27.6 Y40.5 F500
M03 S255
G90 G1 X22.2 Y40.5 F40
M05
G90 G1 X22.3 Y40.7 F500
M03 S255
G90 G1 X27.6 Y40.7 F40
M05
G90 G1 X27.6 Y40.9 F500
M03 S255
G90 G1 X22.3 Y40.9 F40
M05
G90 G1 X22.3 Y41.1 F500
M03 S255
G90 G1 X27.6 Y41.1 F40
M05
G90 G1 X27.6 Y41.3 F500
M03 S255
G90 G1 X22.5 Y41.3 F40
M05
G90 G1 X22.5 Y41.5 F500
M03 S255
G90 G1 X27.7 Y41.5 F40
M05
G90 G1 X27.7 Y41.7 F500
M03 S255
G90 G1 X22.6 Y41.7 F40
M05
G90 G1 X22.6 Y41.9 F500
M03 S255
G90 G1 X27.7 Y41.9 F40
M05
G90 G1 X27.7 Y42.1 F500
M03 S255
G90 G1 X22.7 Y42.1 F40
M05
G90 G1 X22.7 Y42.3 F500
M03 S255
G90 G1 X27.7 Y42.3 F40
M05
G90 G1 X27.8 Y42.5 F500
M03 S255
G90 G1 X22.8 Y42.5 F40
M05
G90 G1 X22.8 Y42.7 F500
M03 S255
G90 G1 X27.8 Y42.7 F40
M05
G90 G1 X27.8 Y42.9 F500
M03 S255
G90 G1 X23.0 Y42.9 F40
M05
G90 G1 X23.0 Y43.1 F500
M03 S255
G90 G1 X27.9 Y43.1 F40
M05
G90 G1 X27.9 Y43.3 F500
M03 S255
G90 G1 X23.1 Y43.3 F40
M05
G90 G1 X23.2 Y43.5 F500
M03 S255
G90 G1 X28.0 Y43.5 F40
M05
G90 G1 X28.1 Y43.7 F500
M03 S255
G90 G1 X23.2 Y43.7 F40
M05
G90 G1 X23.3 Y43.9 F500
M03 S255
G90 G1 X28.1 Y43.9 F40
M05
G90 G1 X28.1 Y44.1 F500
M03 S255
G90 G1 X23.3 Y44.1 F40
M05
G90 G1 X23.5 Y44.3 F500
M03 S255
G90 G1 X28.2 Y44.3 F40
M05
G90 G1 X28.2 Y44.5 F500
M03 S255
G90 G1 X23.5 Y44.5 F40
M05
G90 G1 X23.6 Y44.7 F500
M03 S255
G90 G1 X28.3 Y44.7 F40
M05
G90 G1 X28.3 Y44.9 F500
M03 S255
G90 G1 X23.7 Y44.9 F40
M05
G90 G1 X23.7 Y45.1 F500
M03 S255
G90 G1 X28.4 Y45.1 F40
M05
G90 G1 X28.5 Y45.3 F500
M03 S255
G90 G1 X23.8 Y45.3 F40
M05
G90 G1 X24.0 Y45.5 F500
M03 S255
G90 G1 X28.6 Y45.5 F40
M05
G90 G1 X28.6 Y45.7 F500
M03 S255
G90 G1 X24.0 Y45.7 F40
M05
G90 G1 X24.1 Y45.9 F500
M03 S255
G90 G1 X28.7 Y45.9 F40
M05
G90 G1 X28.8 Y46.1 F500
M03 S255
G90 G1 X24.2 Y46.1 F40
M05
G90 G1 X24.3 Y46.3 F500
M03 S255
G90 G1 X28.8 Y46.3 F40
M05
G90 G1 X28.9 Y46.5 F500
M03 S255
G90 G1 X24.3 Y46.5 F40
M05
G90 G1 X24.4 Y46.7 F500
M03 S255
G90 G1 X29.0 Y46.7 F40
M05
G90 G1 X29.1 Y46.9 F500
M03 S255
G90 G1 X24.6 Y46.9 F40
M05
G90 G1 X24.7 Y47.1 F500
M03 S255
G90 G1 X29.2 Y47.1 F40
M05
G90 G1 X29.2 Y47.3 F500
M03 S255
G90 G1 X24.7 Y47.3 F40
M05
G90 G1 X24.8 Y47.5 F500
M03 S255
G90 G1 X29.3 Y47.5 F40
M05
G90 G1 X29.4 Y47.7 F500
M03 S255
G90 G1 X24.9 Y47.7 F40
M05
G90 G1 X25.0 Y47.9 F500
M03 S255
G90 G1 X29.5 Y47.9 F40
M05
G90 G1 X29.6 Y48.1 F500
M03 S255
G90 G1 X25.1 Y48.1 F40
M05
G90 G1 X25.2 Y48.3 F500
M03 S255
G90 G1 X29.7 Y48.3 F40
M05
G90 G1 X29.8 Y48.5 F500
M03 S255
G90 G1 X25.3 Y48.5 F40
M05
G90 G1 X25.4 Y48.7 F500
M03 S255
G90 G1 X29.9 Y48.7 F40
M05
G90 G1 X29.9 Y48.9 F500
M03 S255
G90 G1 X25.6 Y48.9 F40
M05
G90 G1 X25.7 Y49.1 F500
M03 S255
G90 G1 X30.1 Y49.1 F40
M05
G90 G1 X30.2 Y49.3 F500
M03 S255
G90 G1 X25.8 Y49.3 F40
M05
G90 G1 X25.8 Y49.5 F500
M03 S255
G90 G1 X30.2 Y49.5 F40
M05
G90 G1 X30.3 Y49.7 F500
M03 S255
G90 G1 X25.9 Y49.7 F40
M05
G90 G1 X26.1 Y49.9 F500
M03 S255
G90 G1 X30.4 Y49.9 F40
M05
G90 G1 X30.6 Y50.1 F500
M03 S255
G90 G1 X26.2 Y50.1 F40
M05
G90 G1 X26.3 Y50.3 F500
M03 S255
G90 G1 X30.7 Y50.3 F40
M05
G90 G1 X30.8 Y50.5 F500
M03 S255
G90 G1 X26.4 Y50.5 F40
M05
G90 G1 X26.6 Y50.7 F500
M03 S255
G90 G1 X30.9 Y50.7 F40
M05
G90 G1 X31.0 Y50.9 F500
M03 S255
G90 G1 X26.7 Y50.9 F40
M05
G90 G1 X26.8 Y51.1 F500
M03 S255
G90 G1 X31.1 Y51.1 F40
M05
G90 G1 X31.2 Y51.3 F500
M03 S255
G90 G1 X26.9 Y51.3 F40
M05
G90 G1 X27.0 Y51.5 F500
M03 S255
G90 G1 X31.3 Y51.5 F40
M05
G90 G1 X31.4 Y51.7 F500
M03 S255
G90 G1 X27.1 Y51.7 F40
M05
G90 G1 X27.3 Y51.9 F500
M03 S255
G90 G1 X31.5 Y51.9 F40
M05
G90 G1 X31.7 Y52.1 F500
M03 S255
G90 G1 X27.4 Y52.1 F40
M05
G90 G1 X27.5 Y52.3 F500
M03 S255
G90 G1 X31.8 Y52.3 F40
M05
G90 G1 X31.9 Y52.5 F500
M03 S255
G90 G1 X27.6 Y52.5 F40
M05
G90 G1 X27.8 Y52.7 F500
M03 S255
G90 G1 X32.0 Y52.7 F40
M05
G90 G1 X32.1 Y52.9 F500
M03 S255
G90 G1 X27.9 Y52.9 F40
M05
G90 G1 X28.0 Y53.1 F500
M03 S255
G90 G1 X32.3 Y53.1 F40
M05
G90 G1 X32.4 Y53.3 F500
M03 S255
G90 G1 X28.2 Y53.3 F40
M05
G90 G1 X28.3 Y53.5 F500
M03 S255
G90 G1 X32.5 Y53.5 F40
M05
G90 G1 X32.6 Y53.7 F500
M03 S255
G90 G1 X28.4 Y53.7 F40
M05
G90 G1 X28.5 Y53.9 F500
M03 S255
G90 G1 X32.7 Y53.9 F40
M05
G90 G1 X32.9 Y54.1 F500
M03 S255
G90 G1 X28.6 Y54.1 F40
M05
G90 G1 X28.8 Y54.3 F500
M03 S255
G90 G1 X33.0 Y54.3 F40
M05
G90 G1 X33.2 Y54.3 F500
M03 S255
G90 G1 X37.0 Y54.3 F40
M05
G90 G1 X37.0 Y54.5 F500
M03 S255
G90 G1 X28.9 Y54.5 F40
M05
G90 G1 X29.0 Y54.7 F500
M03 S255
G90 G1 X37.1 Y54.7 F40
M05
G90 G1 X37.2 Y54.9 F500
M03 S255
G90 G1 X29.2 Y54.9 F40
M05
G90 G1 X29.4 Y55.1 F500
M03 S255
G90 G1 X37.3 Y55.1 F40
M05
G90 G1 X37.4 Y55.3 F500
M03 S255
G90 G1 X29.5 Y55.3 F40
M05
G90 G1 X29.6 Y55.5 F500
M03 S255
G90 G1 X37.5 Y55.5 F40
M05
G90 G1 X37.5 Y55.7 F500
M03 S255
G90 G1 X29.8 Y55.7 F40
M05
G90 G1 X29.9 Y55.9 F500
M03 S255
G90 G1 X37.6 Y55.9 F40
M05
G90 G1 X37.7 Y56.1 F500
M03 S255
G90 G1 X30.0 Y56.1 F40
M05
G90 G1 X30.2 Y56.3 F500
M03 S255
G90 G1 X37.8 Y56.3 F40
M05
G90 G1 X37.9 Y56.5 F500
M03 S255
G90 G1 X30.3 Y56.5 F40
M05
G90 G1 X30.5 Y56.7 F500
M03 S255
G90 G1 X38.0 Y56.7 F40
M05
G90 G1 X38.0 Y56.9 F500
M03 S255
G90 G1 X30.6 Y56.9 F40
M05
G90 G1 X30.8 Y57.1 F500
M03 S255
G90 G1 X38.1 Y57.1 F40
M05
G90 G1 X38.2 Y57.3 F500
M03 S255
G90 G1 X30.9 Y57.3 F40
M05
G90 G1 X31.1 Y57.5 F500
M03 S255
G90 G1 X38.2 Y57.5 F40
M05
G90 G1 X38.3 Y57.7 F500
M03 S255
G90 G1 X31.2 Y57.7 F40
M05
G90 G1 X31.4 Y57.9 F500
M03 S255
G90 G1 X38.4 Y57.9 F40
M05
G90 G1 X38.5 Y58.1 F500
M03 S255
G90 G1 X31.5 Y58.1 F40
M05
G90 G1 X31.7 Y58.3 F500
M03 S255
G90 G1 X38.6 Y58.3 F40
M05
G90 G1 X38.6 Y58.5 F500
M03 S255
G90 G1 X31.9 Y58.5 F40
M05
G90 G1 X32.0 Y58.7 F500
M03 S255
G90 G1 X38.7 Y58.7 F40
M05
G90 G1 X38.8 Y58.9 F500
M03 S255
G90 G1 X32.1 Y58.9 F40
M05
G90 G1 X32.3 Y59.1 F500
M03 S255
G90 G1 X38.8 Y59.1 F40
M05
G90 G1 X38.9 Y59.3 F500
M03 S255
G90 G1 X32.5 Y59.3 F40
M05
G90 G1 X32.5 Y59.5 F500
M03 S255
G90 G1 X32.4 Y59.5 F40
M05
G90 G1 X32.6 Y59.5 F500
M03 S255
G90 G1 X39.0 Y59.5 F40
M05
G90 G1 X39.1 Y59.7 F500
M03 S255
G90 G1 X32.8 Y59.7 F40
M05
G90 G1 X33.0 Y59.9 F500
M03 S255
G90 G1 X39.1 Y59.9 F40
M05
G90 G1 X39.2 Y60.1 F500
M03 S255
G90 G1 X33.1 Y60.1 F40
M05
G90 G1 X33.0 Y60.1 F500
M03 S255
G90 G1 X32.9 Y60.1 F40
M05
G90 G1 X33.2 Y60.3 F500
M03 S255
G90 G1 X39.2 Y60.3 F40
M05
G90 G1 X39.3 Y60.5 F500
M03 S255
G90 G1 X33.5 Y60.5 F40
M05
G90 G1 X33.6 Y60.7 F500
M03 S255
G90 G1 X39.4 Y60.7 F40
M05
G90 G1 X39.5 Y60.9 F500
M03 S255
G90 G1 X33.7 Y60.9 F40
M05
G90 G1 X33.9 Y61.1 F500
M03 S255
G90 G1 X39.5 Y61.1 F40
M05
G90 G1 X39.6 Y61.3 F500
M03 S255
G90 G1 X34.1 Y61.3 F40
M05
G90 G1 X34.2 Y61.5 F500
M03 S255
G90 G1 X39.6 Y61.5 F40
M05
G90 G1 X39.7 Y61.7 F500
M03 S255
G90 G1 X34.3 Y61.7 F40
M05
G90 G1 X34.5 Y61.9 F500
M03 S255
G90 G1 X39.7 Y61.9 F40
M05
G90 G1 X39.8 Y62.1 F500
M03 S255
G90 G1 X34.6 Y62.1 F40
M05
G90 G1 X34.7 Y62.3 F500
M03 S255
G90 G1 X39.8 Y62.3 F40
M05
G90 G1 X39.9 Y62.5 F500
M03 S255
G90 G1 X34.8 Y62.5 F40
M05
G90 G1 X35.0 Y62.7 F500
M03 S255
G90 G1 X40.0 Y62.7 F40
M05
G90 G1 X40.0 Y62.9 F500
M03 S255
G90 G1 X35.1 Y62.9 F40
M05
G90 G1 X35.2 Y63.1 F500
M03 S255
G90 G1 X40.1 Y63.1 F40
M05
G90 G1 X40.1 Y63.3 F500
M03 S255
G90 G1 X35.2 Y63.3 F40
M05
G90 G1 X35.3 Y63.5 F500
M03 S255
G90 G1 X40.2 Y63.5 F40
M05
G90 G1 X40.2 Y63.7 F500
M03 S255
G90 G1 X35.5 Y63.7 F40
M05
G90 G1 X35.6 Y63.9 F500
M03 S255
G90 G1 X40.2 Y63.9 F40
M05
G90 G1 X40.3 Y64.1 F500
M03 S255
G90 G1 X35.7 Y64.1 F40
M05
G90 G1 X35.8 Y64.3 F500
M03 S255
G90 G1 X40.3 Y64.3 F40
M05
G90 G1 X40.3 Y64.5 F500
M03 S255
G90 G1 X35.8 Y64.5 F40
M05
G90 G1 X36.0 Y64.7 F500
M03 S255
G90 G1 X40.4 Y64.7 F40
M05
G90 G1 X40.4 Y64.9 F500
M03 S255
G90 G1 X36.1 Y64.9 F40
M05
G90 G1 X36.2 Y65.1 F500
M03 S255
G90 G1 X40.5 Y65.1 F40
M05
G90 G1 X40.5 Y65.3 F500
M03 S255
G90 G1 X36.2 Y65.3 F40
M05
G90 G1 X36.3 Y65.5 F500
M03 S255
G90 G1 X40.6 Y65.5 F40
M05
G90 G1 X40.6 Y65.7 F500
M03 S255
G90 G1 X36.4 Y65.7 F40
M05
G90 G1 X36.4 Y65.9 F500
M03 S255
G90 G1 X40.6 Y65.9 F40
M05
G90 G1 X40.6 Y66.1 F500
M03 S255
G90 G1 X36.6 Y66.1 F40
M05
G90 G1 X36.6 Y66.3 F500
M03 S255
G90 G1 X40.7 Y66.3 F40
M05
G90 G1 X40.7 Y66.5 F500
M03 S255
G90 G1 X36.7 Y66.5 F40
M05
G90 G1 X36.8 Y66.7 F500
M03 S255
G90 G1 X40.7 Y66.7 F40
M05
G90 G1 X40.7 Y66.9 F500
M03 S255
G90 G1 X36.8 Y66.9 F40
M05
G90 G1 X36.9 Y67.1 F500
M03 S255
G90 G1 X40.7 Y67.1 F40
M05
G90 G1 X40.7 Y67.3 F500
M03 S255
G90 G1 X36.9 Y67.3 F40
M05
G90 G1 X36.9 Y67.5 F500
M03 S255
G90 G1 X42.1 Y67.5 F40
M05
G90 G1 X42.3 Y67.3 F500
M03 S255
G90 G1 X41.1 Y67.3 F40
M05
G90 G1 X41.4 Y67.1 F500
M03 S255
G90 G1 X42.7 Y67.1 F40
M05
G90 G1 X43.0 Y66.9 F500
M03 S255
G90 G1 X41.7 Y66.9 F40
M05
G90 G1 X42.0 Y66.7 F500
M03 S255
G90 G1 X43.2 Y66.7 F40
M05
G90 G1 X43.4 Y66.5 F500
M03 S255
G90 G1 X42.3 Y66.5 F40
M05
G90 G1 X42.6 Y66.3 F500
M03 S255
G90 G1 X43.7 Y66.3 F40
M05
G90 G1 X43.9 Y66.1 F500
M03 S255
G90 G1 X42.8 Y66.1 F40
M05
G90 G1 X43.1 Y65.9 F500
M03 S255
G90 G1 X44.1 Y65.9 F40
M05
G90 G1 X44.3 Y65.7 F500
M03 S255
G90 G1 X43.3 Y65.7 F40
M05
G90 G1 X43.5 Y65.5 F500
M03 S255
G90 G1 X44.6 Y65.5 F40
M05
G90 G1 X44.8 Y65.3 F500
M03 S255
G90 G1 X43.7 Y65.3 F40
M05
G90 G1 X44.0 Y65.1 F500
M03 S255
G90 G1 X45.1 Y65.1 F40
M05
G90 G1 X45.4 Y64.9 F500
M03 S255
G90 G1 X44.2 Y64.9 F40
M05
G90 G1 X44.4 Y64.7 F500
M03 S255
G90 G1 X45.7 Y64.7 F40
M05
G90 G1 X46.3 Y64.5 F500
M03 S255
G90 G1 X44.7 Y64.5 F40
M05
G90 G1 X45.1 Y64.3 F500
M03 S255
G90 G1 X47.1 Y64.3 F40
M05
G90 G1 X46.5 Y63.7 F500
M03 S255
G90 G1 X49.8 Y63.7 F40
M05
G90 G1 X50.6 Y63.9 F500
M03 S255
G90 G1 X45.8 Y63.9 F40
M05
G90 G1 X45.4 Y64.1 F500
M03 S255
G90 G1 X51.0 Y64.1 F40
M05
G90 G1 X51.5 Y64.3 F500
M03 S255
G90 G1 X49.2 Y64.3 F40
M05
G90 G1 X48.8 Y63.5 F500
M03 S255
G90 G1 X47.6 Y63.5 F40
M05
G90 G1 X50.1 Y64.5 F500
M03 S255
G90 G1 X51.9 Y64.5 F40
M05
G90 G1 X52.2 Y64.7 F500
M03 S255
G90 G1 X50.7 Y64.7 F40
M05
G90 G1 X51.1 Y64.9 F500
M03 S255
G90 G1 X52.6 Y64.9 F40
M05
G90 G1 X52.9 Y65.1 F500
M03 S255
G90 G1 X51.5 Y65.1 F40
M05
G90 G1 X51.8 Y65.3 F500
M03 S255
G90 G1 X53.2 Y65.3 F40
M05
G90 G1 X53.5 Y65.5 F500
M03 S255
G90 G1 X52.1 Y65.5 F40
M05
G90 G1 X52.5 Y65.7 F500
M03 S255
G90 G1 X53.8 Y65.7 F40
M05
G90 G1 X54.2 Y65.9 F500
M03 S255
G90 G1 X52.8 Y65.9 F40
M05
G90 G1 X53.1 Y66.1 F500
M03 S255
G90 G1 X54.6 Y66.1 F40
M05
G90 G1 X55.0 Y66.3 F500
M03 S255
G90 G1 X53.5 Y66.3 F40
M05
G90 G1 X53.8 Y66.5 F500
M03 S255
G90 G1 X55.6 Y66.5 F40
M05
G90 G1 X56.1 Y66.7 F500
M03 S255
G90 G1 X54.2 Y66.7 F40
M05
G90 G1 X54.6 Y66.9 F500
M03 S255
G90 G1 X56.5 Y66.9 F40
M05
G90 G1 X56.9 Y67.1 F500
M03 S255
G90 G1 X55.2 Y67.1 F40
M05
G90 G1 X55.8 Y67.3 F500
M03 S255
G90 G1 X57.2 Y67.3 F40
M05
G90 G1 X57.5 Y67.5 F500
M03 S255
G90 G1 X56.1 Y67.5 F40
M05
G90 G1 X56.5 Y67.7 F500
M03 S255
G90 G1 X57.8 Y67.7 F40
M05
G90 G1 X58.1 Y67.9 F500
M03 S255
G90 G1 X56.9 Y67.9 F40
M05
G90 G1 X57.1 Y68.1 F500
M03 S255
G90 G1 X58.3 Y68.1 F40
M05
G90 G1 X58.5 Y68.3 F500
M03 S255
G90 G1 X57.4 Y68.3 F40
M05
G90 G1 X57.7 Y68.5 F500
M03 S255
G90 G1 X58.7 Y68.5 F40
M05
G90 G1 X58.9 Y68.7 F500
M03 S255
G90 G1 X57.9 Y68.7 F40
M05
G90 G1 X58.1 Y68.9 F500
M03 S255
G90 G1 X59.0 Y68.9 F40
M05
G90 G1 X59.2 Y68.9 F500
M03 S255
G90 G1 X67.3 Y68.9 F40
M05
G90 G1 X67.3 Y69.1 F500
M03 S255
G90 G1 X58.3 Y69.1 F40
M05
G90 G1 X58.4 Y69.3 F500
M03 S255
G90 G1 X67.1 Y69.3 F40
M05
G90 G1 X67.1 Y69.5 F500
M03 S255
G90 G1 X58.6 Y69.5 F40
M05
G90 G1 X58.7 Y69.7 F500
M03 S255
G90 G1 X67.0 Y69.7 F40
M05
G90 G1 X67.0 Y69.9 F500
M03 S255
G90 G1 X58.8 Y69.9 F40
M05
G90 G1 X58.9 Y70.1 F500
M03 S255
G90 G1 X66.9 Y70.1 F40
M05
G90 G1 X66.9 Y70.3 F500
M03 S255
G90 G1 X59.0 Y70.3 F40
M05
G90 G1 X59.1 Y70.5 F500
M03 S255
G90 G1 X66.9 Y70.5 F40
M05
G90 G1 X66.8 Y70.7 F500
M03 S255
G90 G1 X59.2 Y70.7 F40
M05
G90 G1 X59.2 Y70.9 F500
M03 S255
G90 G1 X66.8 Y70.9 F40
M05
G90 G1 X66.8 Y71.1 F500
M03 S255
G90 G1 X59.2 Y71.1 F40
M05
G90 G1 X59.2 Y71.3 F500
M03 S255
G90 G1 X66.8 Y71.3 F40
M05
G90 G1 X66.6 Y71.5 F500
M03 S255
G90 G1 X59.2 Y71.5 F40
M05
G90 G1 X59.2 Y71.7 F500
M03 S255
G90 G1 X66.6 Y71.7 F40
M05
G90 G1 X66.6 Y71.9 F500
M03 S255
G90 G1 X59.1 Y71.9 F40
M05
G90 G1 X59.0 Y72.1 F500
M03 S255
G90 G1 X66.6 Y72.1 F40
M05
G90 G1 X66.6 Y72.3 F500
M03 S255
G90 G1 X58.9 Y72.3 F40
M05
G90 G1 X58.8 Y72.5 F500
M03 S255
G90 G1 X66.6 Y72.5 F40
M05
G90 G1 X66.6 Y72.7 F500
M03 S255
G90 G1 X58.6 Y72.7 F40
M05
G90 G1 X58.4 Y72.9 F500
M03 S255
G90 G1 X66.6 Y72.9 F40
M05
G90 G1 X66.5 Y73.1 F500
M03 S255
G90 G1 X58.2 Y73.1 F40
M05
G90 G1 X57.8 Y73.3 F500
M03 S255
G90 G1 X66.5 Y73.3 F40
M05
G90 G1 X66.5 Y73.5 F500
M03 S255
G90 G1 X57.5 Y73.5 F40
M05
G90 G1 X57.0 Y73.7 F500
M03 S255
G90 G1 X66.5 Y73.7 F40
M05
G90 G1 X66.5 Y73.9 F500
M03 S255
G90 G1 X56.5 Y73.9 F40
M05
G90 G1 X56.1 Y74.1 F500
M03 S255
G90 G1 X66.5 Y74.1 F40
M05
G90 G1 X66.5 Y74.3 F500
M03 S255
G90 G1 X57.8 Y74.3 F40
M05
G90 G1 X57.9 Y74.5 F500
M03 S255
G90 G1 X66.5 Y74.5 F40
M05
G90 G1 X66.6 Y74.7 F500
M03 S255
G90 G1 X58.1 Y74.7 F40
M05
G90 G1 X58.2 Y74.9 F500
M03 S255
G90 G1 X66.6 Y74.9 F40
M05
G90 G1 X66.6 Y75.1 F500
M03 S255
G90 G1 X58.3 Y75.1 F40
M05
G90 G1 X58.4 Y75.3 F500
M03 S255
G90 G1 X66.6 Y75.3 F40
M05
G90 G1 X66.6 Y75.5 F500
M03 S255
G90 G1 X58.5 Y75.5 F40
M05
G90 G1 X58.6 Y75.7 F500
M03 S255
G90 G1 X66.6 Y75.7 F40
M05
G90 G1 X66.6 Y75.9 F500
M03 S255
G90 G1 X58.7 Y75.9 F40
M05
G90 G1 X58.8 Y76.1 F500
M03 S255
G90 G1 X66.6 Y76.1 F40
M05
G90 G1 X66.6 Y76.3 F500
M03 S255
G90 G1 X58.8 Y76.3 F40
M05
G90 G1 X58.9 Y76.5 F500
M03 S255
G90 G1 X66.6 Y76.5 F40
M05
G90 G1 X66.6 Y76.7 F500
M03 S255
G90 G1 X58.9 Y76.7 F40
M05
G90 G1 X59.0 Y76.9 F500
M03 S255
G90 G1 X66.6 Y76.9 F40
M05
G90 G1 X66.6 Y77.1 F500
M03 S255
G90 G1 X59.0 Y77.1 F40
M05
G90 G1 X59.1 Y77.3 F500
M03 S255
G90 G1 X66.6 Y77.3 F40
M05
G90 G1 X66.6 Y77.5 F500
M03 S255
G90 G1 X59.1 Y77.5 F40
M05
G90 G1 X59.1 Y77.7 F500
M03 S255
G90 G1 X66.6 Y77.7 F40
M05
G90 G1 X66.6 Y77.9 F500
M03 S255
G90 G1 X59.2 Y77.9 F40
M05
G90 G1 X59.2 Y78.1 F500
M03 S255
G90 G1 X66.6 Y78.1 F40
M05
G90 G1 X66.6 Y78.3 F500
M03 S255
G90 G1 X59.2 Y78.3 F40
M05
G90 G1 X59.2 Y78.5 F500
M03 S255
G90 G1 X66.6 Y78.5 F40
M05
G90 G1 X66.6 Y78.7 F500
M03 S255
G90 G1 X59.2 Y78.7 F40
M05
G90 G1 X59.2 Y78.9 F500
M03 S255
G90 G1 X66.6 Y78.9 F40
M05
G90 G1 X66.5 Y79.1 F500
M03 S255
G90 G1 X59.2 Y79.1 F40
M05
G90 G1 X59.1 Y79.3 F500
M03 S255
G90 G1 X66.5 Y79.3 F40
M05
G90 G1 X66.5 Y79.5 F500
M03 S255
G90 G1 X59.1 Y79.5 F40
M05
G90 G1 X59.1 Y79.7 F500
M03 S255
G90 G1 X66.5 Y79.7 F40
M05
G90 G1 X66.5 Y79.9 F500
M03 S255
G90 G1 X59.1 Y79.9 F40
M05
G90 G1 X59.0 Y80.1 F500
M03 S255
G90 G1 X66.5 Y80.1 F40
M05
G90 G1 X66.5 Y80.3 F500
M03 S255
G90 G1 X59.0 Y80.3 F40
M05
G90 G1 X58.9 Y80.5 F500
M03 S255
G90 G1 X66.5 Y80.5 F40
M05
G90 G1 X66.5 Y80.7 F500
M03 S255
G90 G1 X58.9 Y80.7 F40
M05
G90 G1 X58.8 Y80.9 F500
M03 S255
G90 G1 X66.5 Y80.9 F40
M05
G90 G1 X66.5 Y81.1 F500
M03 S255
G90 G1 X58.7 Y81.1 F40
M05
G90 G1 X58.7 Y81.3 F500
M03 S255
G90 G1 X66.5 Y81.3 F40
M05
G90 G1 X66.5 Y81.5 F500
M03 S255
G90 G1 X58.6 Y81.5 F40
M05
G90 G1 X58.5 Y81.7 F500
M03 S255
G90 G1 X66.5 Y81.7 F40
M05
G90 G1 X66.4 Y81.9 F500
M03 S255
G90 G1 X58.4 Y81.9 F40
M05
G90 G1 X58.3 Y82.1 F500
M03 S255
G90 G1 X66.4 Y82.1 F40
M05
G90 G1 X66.4 Y82.3 F500
M03 S255
G90 G1 X58.2 Y82.3 F40
M05
G90 G1 X58.0 Y82.5 F500
M03 S255
G90 G1 X66.4 Y82.5 F40
M05
G90 G1 X66.4 Y82.7 F500
M03 S255
G90 G1 X57.9 Y82.7 F40
M05
G90 G1 X57.8 Y82.9 F500
M03 S255
G90 G1 X66.4 Y82.9 F40
M05
G90 G1 X66.4 Y83.1 F500
M03 S255
G90 G1 X57.6 Y83.1 F40
M05
G90 G1 X57.4 Y83.3 F500
M03 S255
G90 G1 X66.3 Y83.3 F40
M05
G90 G1 X66.3 Y83.5 F500
M03 S255
G90 G1 X57.2 Y83.5 F40
M05
G90 G1 X56.9 Y83.7 F500
M03 S255
G90 G1 X66.3 Y83.7 F40
M05
G90 G1 X66.3 Y83.9 F500
M03 S255
G90 G1 X56.7 Y83.9 F40
M05
G90 G1 X56.4 Y84.1 F500
M03 S255
G90 G1 X66.3 Y84.1 F40
M05
G90 G1 X66.1 Y84.3 F500
M03 S255
G90 G1 X56.0 Y84.3 F40
M05
G90 G1 X55.5 Y84.5 F500
M03 S255
G90 G1 X66.1 Y84.5 F40
M05
G90 G1 X66.1 Y84.7 F500
M03 S255
G90 G1 X37.7 Y84.7 F40
M05
G90 G1 X37.7 Y84.9 F500
M03 S255
G90 G1 X66.1 Y84.9 F40
M05
G90 G1 X66.0 Y85.1 F500
M03 S255
G90 G1 X37.7 Y85.1 F40
M05
G90 G1 X37.7 Y85.3 F500
M03 S255
G90 G1 X66.0 Y85.3 F40
M05
G90 G1 X66.0 Y85.5 F500
M03 S255
G90 G1 X37.7 Y85.5 F40
M05
G90 G1 X37.7 Y85.7 F500
M03 S255
G90 G1 X66.0 Y85.7 F40
M05
G90 G1 X65.9 Y85.9 F500
M03 S255
G90 G1 X37.8 Y85.9 F40
M05
G90 G1 X37.8 Y86.1 F500
M03 S255
G90 G1 X65.9 Y86.1 F40
M05
G90 G1 X65.9 Y86.3 F500
M03 S255
G90 G1 X37.8 Y86.3 F40
M05
G90 G1 X37.8 Y86.5 F500
M03 S255
G90 G1 X65.8 Y86.5 F40
M05
G90 G1 X65.8 Y86.7 F500
M03 S255
G90 G1 X37.9 Y86.7 F40
M05
G90 G1 X37.9 Y86.9 F500
M03 S255
G90 G1 X65.8 Y86.9 F40
M05
G90 G1 X65.6 Y87.1 F500
M03 S255
G90 G1 X37.9 Y87.1 F40
M05
G90 G1 X38.1 Y87.3 F500
M03 S255
G90 G1 X65.6 Y87.3 F40
M05
G90 G1 X65.5 Y87.5 F500
M03 S255
G90 G1 X38.1 Y87.5 F40
M05
G90 G1 X38.1 Y87.7 F500
M03 S255
G90 G1 X65.5 Y87.7 F40
M05
G90 G1 X65.4 Y87.9 F500
M03 S255
G90 G1 X38.2 Y87.9 F40
M05
G90 G1 X38.2 Y88.1 F500
M03 S255
G90 G1 X65.4 Y88.1 F40
M05
G90 G1 X65.3 Y88.3 F500
M03 S255
G90 G1 X38.3 Y88.3 F40
M05
G90 G1 X38.3 Y88.5 F500
M03 S255
G90 G1 X65.3 Y88.5 F40
M05
G90 G1 X65.2 Y88.7 F500
M03 S255
G90 G1 X38.4 Y88.7 F40
M05
G90 G1 X38.4 Y88.9 F500
M03 S255
G90 G1 X65.2 Y88.9 F40
M05
G90 G1 X65.0 Y89.1 F500
M03 S255
G90 G1 X38.5 Y89.1 F40
M05
G90 G1 X38.6 Y89.3 F500
M03 S255
G90 G1 X65.0 Y89.3 F40
M05
G90 G1 X64.9 Y89.5 F500
M03 S255
G90 G1 X38.7 Y89.5 F40
M05
G90 G1 X38.7 Y89.7 F500
M03 S255
G90 G1 X64.9 Y89.7 F40
M05
G90 G1 X64.8 Y89.9 F500
M03 S255
G90 G1 X38.8 Y89.9 F40
M05
G90 G1 X38.8 Y90.1 F500
M03 S255
G90 G1 X64.7 Y90.1 F40
M05
G90 G1 X64.7 Y90.3 F500
M03 S255
G90 G1 X38.9 Y90.3 F40
M05
G90 G1 X39.0 Y90.5 F500
M03 S255
G90 G1 X64.5 Y90.5 F40
M05
G90 G1 X64.4 Y90.7 F500
M03 S255
G90 G1 X39.1 Y90.7 F40
M05
G90 G1 X39.2 Y90.9 F500
M03 S255
G90 G1 X64.3 Y90.9 F40
M05
G90 G1 X64.3 Y91.1 F500
M03 S255
G90 G1 X39.3 Y91.1 F40
M05
G90 G1 X39.4 Y91.3 F500
M03 S255
G90 G1 X64.2 Y91.3 F40
M05
G90 G1 X64.0 Y91.5 F500
M03 S255
G90 G1 X39.5 Y91.5 F40
M05
G90 G1 X39.6 Y91.7 F500
M03 S255
G90 G1 X63.9 Y91.7 F40
M05
G90 G1 X63.8 Y91.9 F500
M03 S255
G90 G1 X39.7 Y91.9 F40
M05
G90 G1 X39.9 Y92.1 F500
M03 S255
G90 G1 X63.7 Y92.1 F40
M05
G90 G1 X63.6 Y92.3 F500
M03 S255
G90 G1 X40.0 Y92.3 F40
M05
G90 G1 X40.1 Y92.5 F500
M03 S255
G90 G1 X63.4 Y92.5 F40
M05
G90 G1 X63.3 Y92.7 F500
M03 S255
G90 G1 X40.3 Y92.7 F40
M05
G90 G1 X40.4 Y92.9 F500
M03 S255
G90 G1 X63.2 Y92.9 F40
M05
G90 G1 X63.0 Y93.1 F500
M03 S255
G90 G1 X40.5 Y93.1 F40
M05
G90 G1 X40.7 Y93.3 F500
M03 S255
G90 G1 X62.9 Y93.3 F40
M05
G90 G1 X62.7 Y93.5 F500
M03 S255
G90 G1 X40.9 Y93.5 F40
M05
G90 G1 X41.0 Y93.7 F500
M03 S255
G90 G1 X62.6 Y93.7 F40
M05
G90 G1 X62.4 Y93.9 F500
M03 S255
G90 G1 X41.3 Y93.9 F40
M05
G90 G1 X41.4 Y94.1 F500
M03 S255
G90 G1 X62.2 Y94.1 F40
M05
G90 G1 X62.3 Y94.1 F500
M03 S255
G90 G1 X62.4 Y94.1 F40
M05
G90 G1 X62.0 Y94.3 F500
M03 S255
G90 G1 X41.6 Y94.3 F40
M05
G90 G1 X41.9 Y94.5 F500
M03 S255
G90 G1 X61.8 Y94.5 F40
M05
G90 G1 X61.6 Y94.7 F500
M03 S255
G90 G1 X42.1 Y94.7 F40
M05
G90 G1 X42.3 Y94.9 F500
M03 S255
G90 G1 X61.4 Y94.9 F40
M05
G90 G1 X61.1 Y95.1 F500
M03 S255
G90 G1 X42.6 Y95.1 F40
M05
G90 G1 X42.8 Y95.3 F500
M03 S255
G90 G1 X60.9 Y95.3 F40
M05
G90 G1 X60.6 Y95.5 F500
M03 S255
G90 G1 X43.2 Y95.5 F40
M05
G90 G1 X43.5 Y95.7 F500
M03 S255
G90 G1 X60.3 Y95.7 F40
M05
G90 G1 X60.1 Y95.9 F500
M03 S255
G90 G1 X43.8 Y95.9 F40
M05
G90 G1 X44.2 Y96.1 F500
M03 S255
G90 G1 X59.7 Y96.1 F40
M05
G90 G1 X59.4 Y96.3 F500
M03 S255
G90 G1 X44.6 Y96.3 F40
M05
G90 G1 X45.0 Y96.5 F500
M03 S255
G90 G1 X59.0 Y96.5 F40
M05
G90 G1 X58.5 Y96.7 F500
M03 S255
G90 G1 X45.6 Y96.7 F40
M05
G90 G1 X45.9 Y96.9 F500
M03 S255
G90 G1 X58.2 Y96.9 F40
M05
G90 G1 X57.4 Y97.1 F500
M03 S255
G90 G1 X46.7 Y97.1 F40
M05
G90 G1 X47.6 Y97.3 F500
M03 S255
G90 G1 X56.7 Y97.3 F40
M05
G90 G1 X56.1 Y97.5 F500
M03 S255
G90 G1 X48.3 Y97.5 F40
M05
G90 G1 X50.0 Y97.7 F500
M03 S255
G90 G1 X54.6 Y97.7 F40
M05
G90 G1 X53.3 Y84.5 F500
M03 S255
G90 G1 X37.6 Y84.5 F40
M05
G90 G1 X37.6 Y84.3 F500
M03 S255
G90 G1 X52.9 Y84.3 F40
M05
G90 G1 X52.5 Y84.1 F500
M03 S255
G90 G1 X37.6 Y84.1 F40
M05
G90 G1 X37.6 Y83.9 F500
M03 S255
G90 G1 X52.2 Y83.9 F40
M05
G90 G1 X51.9 Y83.7 F500
M03 S255
G90 G1 X43.1 Y83.7 F40
M05
G90 G1 X42.5 Y83.7 F500
M03 S255
G90 G1 X37.6 Y83.7 F40
M05
G90 G1 X37.6 Y83.5 F500
M03 S255
G90 G1 X41.8 Y83.5 F40
M05
G90 G1 X41.5 Y83.3 F500
M03 S255
G90 G1 X37.6 Y83.3 F40
M05
G90 G1 X37.6 Y83.1 F500
M03 S255
G90 G1 X41.2 Y83.1 F40
M05
G90 G1 X41.0 Y82.9 F500
M03 S255
G90 G1 X37.6 Y82.9 F40
M05
G90 G1 X37.5 Y82.7 F500
M03 S255
G90 G1 X40.8 Y82.7 F40
M05
G90 G1 X40.6 Y82.5 F500
M03 S255
G90 G1 X37.5 Y82.5 F40
M05
G90 G1 X37.4 Y82.3 F500
M03 S255
G90 G1 X40.5 Y82.3 F40
M05
G90 G1 X40.4 Y82.1 F500
M03 S255
G90 G1 X37.4 Y82.1 F40
M05
G90 G1 X37.4 Y81.9 F500
M03 S255
G90 G1 X40.3 Y81.9 F40
M05
G90 G1 X40.2 Y81.7 F500
M03 S255
G90 G1 X37.4 Y81.7 F40
M05
G90 G1 X37.4 Y81.5 F500
M03 S255
G90 G1 X40.1 Y81.5 F40
M05
G90 G1 X40.0 Y81.3 F500
M03 S255
G90 G1 X37.4 Y81.3 F40
M05
G90 G1 X37.4 Y81.1 F500
M03 S255
G90 G1 X39.9 Y81.1 F40
M05
G90 G1 X39.8 Y80.9 F500
M03 S255
G90 G1 X37.4 Y80.9 F40
M05
G90 G1 X37.4 Y80.7 F500
M03 S255
G90 G1 X39.8 Y80.7 F40
M05
G90 G1 X39.7 Y80.5 F500
M03 S255
G90 G1 X37.5 Y80.5 F40
M05
G90 G1 X37.6 Y80.3 F500
M03 S255
G90 G1 X39.7 Y80.3 F40
M05
G90 G1 X39.7 Y80.1 F500
M03 S255
G90 G1 X37.6 Y80.1 F40
M05
G90 G1 X37.6 Y79.9 F500
M03 S255
G90 G1 X39.6 Y79.9 F40
M05
G90 G1 X39.6 Y79.7 F500
M03 S255
G90 G1 X37.6 Y79.7 F40
M05
G90 G1 X37.6 Y79.5 F500
M03 S255
G90 G1 X39.6 Y79.5 F40
M05
G90 G1 X39.6 Y79.3 F500
M03 S255
G90 G1 X37.6 Y79.3 F40
M05
G90 G1 X37.6 Y79.1 F500
M03 S255
G90 G1 X39.6 Y79.1 F40
M05
G90 G1 X39.6 Y78.9 F500
M03 S255
G90 G1 X37.6 Y78.9 F40
M05
G90 G1 X37.6 Y78.7 F500
M03 S255
G90 G1 X39.6 Y78.7 F40
M05
G90 G1 X39.6 Y78.5 F500
M03 S255
G90 G1 X37.6 Y78.5 F40
M05
G90 G1 X37.6 Y78.3 F500
M03 S255
G90 G1 X39.6 Y78.3 F40
M05
G90 G1 X39.6 Y78.1 F500
M03 S255
G90 G1 X37.6 Y78.1 F40
M05
G90 G1 X37.6 Y77.9 F500
M03 S255
G90 G1 X39.6 Y77.9 F40
M05
G90 G1 X39.6 Y77.7 F500
M03 S255
G90 G1 X37.7 Y77.7 F40
M05
G90 G1 X37.7 Y77.5 F500
M03 S255
G90 G1 X39.6 Y77.5 F40
M05
G90 G1 X39.7 Y77.3 F500
M03 S255
G90 G1 X37.7 Y77.3 F40
M05
G90 G1 X37.7 Y77.1 F500
M03 S255
G90 G1 X39.7 Y77.1 F40
M05
G90 G1 X39.8 Y76.9 F500
M03 S255
G90 G1 X37.7 Y76.9 F40
M05
G90 G1 X37.7 Y76.7 F500
M03 S255
G90 G1 X39.8 Y76.7 F40
M05
G90 G1 X39.9 Y76.5 F500
M03 S255
G90 G1 X37.7 Y76.5 F40
M05
G90 G1 X37.7 Y76.3 F500
M03 S255
G90 G1 X39.9 Y76.3 F40
M05
G90 G1 X40.0 Y76.1 F500
M03 S255
G90 G1 X37.7 Y76.1 F40
M05
G90 G1 X37.7 Y75.9 F500
M03 S255
G90 G1 X40.1 Y75.9 F40
M05
G90 G1 X40.2 Y75.7 F500
M03 S255
G90 G1 X37.8 Y75.7 F40
M05
G90 G1 X37.8 Y75.5 F500
M03 S255
G90 G1 X40.3 Y75.5 F40
M05
G90 G1 X40.3 Y75.3 F500
M03 S255
G90 G1 X37.8 Y75.3 F40
M05
G90 G1 X37.8 Y75.1 F500
M03 S255
G90 G1 X40.5 Y75.1 F40
M05
G90 G1 X40.6 Y74.9 F500
M03 S255
G90 G1 X37.8 Y74.9 F40
M05
G90 G1 X37.8 Y74.7 F500
M03 S255
G90 G1 X40.7 Y74.7 F40
M05
G90 G1 X40.9 Y74.5 F500
M03 S255
G90 G1 X37.8 Y74.5 F40
M05
G90 G1 X37.8 Y74.3 F500
M03 S255
G90 G1 X41.1 Y74.3 F40
M05
G90 G1 X41.2 Y74.1 F500
M03 S255
G90 G1 X37.8 Y74.1 F40
M05
G90 G1 X37.8 Y73.9 F500
M03 S255
G90 G1 X42.3 Y73.9 F40
M05
G90 G1 X42.5 Y74.1 F500
M03 S255
G90 G1 X41.3 Y74.1 F40
M05
G90 G1 X41.6 Y74.3 F500
M03 S255
G90 G1 X42.8 Y74.3 F40
M05
G90 G1 X43.0 Y74.5 F500
M03 S255
G90 G1 X41.9 Y74.5 F40
M05
G90 G1 X42.1 Y74.7 F500
M03 S255
G90 G1 X43.2 Y74.7 F40
M05
G90 G1 X43.4 Y74.9 F500
M03 S255
G90 G1 X42.4 Y74.9 F40
M05
G90 G1 X42.4 Y75.1 F500
M03 S255
G90 G1 X43.6 Y75.1 F40
M05
G90 G1 X43.9 Y75.3 F500
M03 S255
G90 G1 X42.2 Y75.3 F40
M05
G90 G1 X42.0 Y75.5 F500
M03 S255
G90 G1 X44.1 Y75.5 F40
M05
G90 G1 X44.3 Y75.7 F500
M03 S255
G90 G1 X41.9 Y75.7 F40
M05
G90 G1 X41.8 Y75.9 F500
M03 S255
G90 G1 X44.6 Y75.9 F40
M05
G90 G1 X44.9 Y76.1 F500
M03 S255
G90 G1 X41.7 Y76.1 F40
M05
G90 G1 X41.6 Y76.3 F500
M03 S255
G90 G1 X45.3 Y76.3 F40
M05
G90 G1 X45.7 Y76.5 F500
M03 S255
G90 G1 X41.6 Y76.5 F40
M05
G90 G1 X41.5 Y76.7 F500
M03 S255
G90 G1 X46.1 Y76.7 F40
M05
G90 G1 X45.7 Y77.3 F500
M03 S255
G90 G1 X50.7 Y77.3 F40
M05
G90 G1 X51.3 Y77.1 F500
M03 S255
G90 G1 X45.3 Y77.1 F40
M05
G90 G1 X44.8 Y76.9 F500
M03 S255
G90 G1 X46.8 Y76.9 F40
M05
G90 G1 X46.3 Y77.5 F500
M03 S255
G90 G1 X50.0 Y77.5 F40
M05
G90 G1 X49.8 Y77.7 F500
M03 S255
G90 G1 X46.3 Y77.7 F40
M05
G90 G1 X46.4 Y77.9 F500
M03 S255
G90 G1 X49.8 Y77.9 F40
M05
G90 G1 X49.7 Y78.1 F500
M03 S255
G90 G1 X46.4 Y78.1 F40
M05
G90 G1 X46.4 Y78.3 F500
M03 S255
G90 G1 X49.7 Y78.3 F40
M05
G90 G1 X49.7 Y78.5 F500
M03 S255
G90 G1 X46.3 Y78.5 F40
M05
G90 G1 X46.3 Y78.7 F500
M03 S255
G90 G1 X49.7 Y78.7 F40
M05
G90 G1 X49.7 Y78.9 F500
M03 S255
G90 G1 X46.3 Y78.9 F40
M05
G90 G1 X46.3 Y79.1 F500
M03 S255
G90 G1 X49.7 Y79.1 F40
M05
G90 G1 X49.8 Y79.3 F500
M03 S255
G90 G1 X46.3 Y79.3 F40
M05
G90 G1 X46.3 Y79.5 F500
M03 S255
G90 G1 X49.8 Y79.5 F40
M05
G90 G1 X49.8 Y79.7 F500
M03 S255
G90 G1 X46.2 Y79.7 F40
M05
G90 G1 X46.2 Y79.9 F500
M03 S255
G90 G1 X49.8 Y79.9 F40
M05
G90 G1 X49.9 Y80.1 F500
M03 S255
G90 G1 X46.2 Y80.1 F40
M05
G90 G1 X46.1 Y80.3 F500
M03 S255
G90 G1 X49.9 Y80.3 F40
M05
G90 G1 X50.0 Y80.5 F500
M03 S255
G90 G1 X46.0 Y80.5 F40
M05
G90 G1 X46.0 Y80.7 F500
M03 S255
G90 G1 X50.0 Y80.7 F40
M05
G90 G1 X50.1 Y80.9 F500
M03 S255
G90 G1 X45.9 Y80.9 F40
M05
G90 G1 X45.8 Y81.1 F500
M03 S255
G90 G1 X50.1 Y81.1 F40
M05
G90 G1 X50.2 Y81.3 F500
M03 S255
G90 G1 X45.7 Y81.3 F40
M05
G90 G1 X45.7 Y81.5 F500
M03 S255
G90 G1 X50.3 Y81.5 F40
M05
G90 G1 X50.4 Y81.7 F500
M03 S255
G90 G1 X45.6 Y81.7 F40
M05
G90 G1 X45.4 Y81.9 F500
M03 S255
G90 G1 X50.5 Y81.9 F40
M05
G90 G1 X50.6 Y82.1 F500
M03 S255
G90 G1 X45.3 Y82.1 F40
M05
G90 G1 X45.2 Y82.3 F500
M03 S255
G90 G1 X50.7 Y82.3 F40
M05
G90 G1 X50.8 Y82.5 F500
M03 S255
G90 G1 X45.0 Y82.5 F40
M05
G90 G1 X44.8 Y82.7 F500
M03 S255
G90 G1 X51.0 Y82.7 F40
M05
G90 G1 X51.1 Y82.9 F500
M03 S255
G90 G1 X44.6 Y82.9 F40
M05
G90 G1 X44.4 Y83.1 F500
M03 S255
G90 G1 X51.3 Y83.1 F40
M05
G90 G1 X51.5 Y83.3 F500
M03 S255
G90 G1 X44.1 Y83.3 F40
M05
G90 G1 X43.8 Y83.5 F500
M03 S255
G90 G1 X51.7 Y83.5 F40
M05
G90 G1 X53.5 Y80.7 F500
M03 S255
G90 G1 X55.2 Y80.7 F40
M05
G90 G1 X55.5 Y80.5 F500
M03 S255
G90 G1 X53.2 Y80.5 F40
M05
G90 G1 X53.1 Y80.3 F500
M03 S255
G90 G1 X55.7 Y80.3 F40
M05
G90 G1 X55.8 Y80.1 F500
M03 S255
G90 G1 X52.9 Y80.1 F40
M05
G90 G1 X52.8 Y79.9 F500
M03 S255
G90 G1 X55.9 Y79.9 F40
M05
G90 G1 X56.0 Y79.7 F500
M03 S255
G90 G1 X52.6 Y79.7 F40
M05
G90 G1 X52.6 Y79.5 F500
M03 S255
G90 G1 X56.1 Y79.5 F40
M05
G90 G1 X56.2 Y79.3 F500
M03 S255
G90 G1 X52.5 Y79.3 F40
M05
G90 G1 X52.4 Y79.1 F500
M03 S255
G90 G1 X56.3 Y79.1 F40
M05
G90 G1 X56.3 Y78.9 F500
M03 S255
G90 G1 X52.4 Y78.9 F40
M05
G90 G1 X52.3 Y78.7 F500
M03 S255
G90 G1 X56.3 Y78.7 F40
M05
G90 G1 X56.4 Y78.5 F500
M03 S255
G90 G1 X52.2 Y78.5 F40
M05
G90 G1 X52.2 Y78.3 F500
M03 S255
G90 G1 X56.4 Y78.3 F40
M05
G90 G1 X56.4 Y78.1 F500
M03 S255
G90 G1 X52.2 Y78.1 F40
M05
G90 G1 X52.2 Y77.9 F500
M03 S255
G90 G1 X56.4 Y77.9 F40
M05
G90 G1 X56.4 Y77.7 F500
M03 S255
G90 G1 X52.1 Y77.7 F40
M05
G90 G1 X52.1 Y77.5 F500
M03 S255
G90 G1 X56.4 Y77.5 F40
M05
G90 G1 X56.4 Y77.3 F500
M03 S255
G90 G1 X52.2 Y77.3 F40
M05
G90 G1 X52.2 Y77.1 F500
M03 S255
G90 G1 X56.4 Y77.1 F40
M05
G90 G1 X56.4 Y76.9 F500
M03 S255
G90 G1 X52.2 Y76.9 F40
M05
G90 G1 X51.9 Y76.9 F500
M03 S255
G90 G1 X49.5 Y76.9 F40
M05
G90 G1 X50.3 Y76.7 F500
M03 S255
G90 G1 X56.3 Y76.7 F40
M05
G90 G1 X56.3 Y76.5 F500
M03 S255
G90 G1 X50.7 Y76.5 F40
M05
G90 G1 X51.3 Y76.3 F500
M03 S255
G90 G1 X56.2 Y76.3 F40
M05
G90 G1 X56.2 Y76.1 F500
M03 S255
G90 G1 X51.7 Y76.1 F40
M05
G90 G1 X52.0 Y75.9 F500
M03 S255
G90 G1 X56.0 Y75.9 F40
M05
G90 G1 X55.9 Y75.7 F500
M03 S255
G90 G1 X52.4 Y75.7 F40
M05
G90 G1 X52.7 Y75.5 F500
M03 S255
G90 G1 X55.8 Y75.5 F40
M05
G90 G1 X55.6 Y75.3 F500
M03 S255
G90 G1 X53.1 Y75.3 F40
M05
G90 G1 X53.4 Y75.1 F500
M03 S255
G90 G1 X55.4 Y75.1 F40
M05
G90 G1 X55.9 Y74.9 F500
M03 S255
G90 G1 X53.8 Y74.9 F40
M05
G90 G1 X54.4 Y74.7 F500
M03 S255
G90 G1 X56.5 Y74.7 F40
M05
G90 G1 X56.9 Y74.5 F500
M03 S255
G90 G1 X54.9 Y74.5 F40
M05
G90 G1 X55.5 Y74.3 F500
M03 S255
G90 G1 X57.5 Y74.3 F40
M05
G90 G1 X57.0 Y71.9 F500
M03 S255
G90 G1 X56.3 Y71.9 F40
M05
G90 G1 X56.2 Y71.7 F500
M03 S255
G90 G1 X56.9 Y71.7 F40
M05
G90 G1 X56.8 Y71.5 F500
M03 S255
G90 G1 X56.1 Y71.5 F40
M05
G90 G1 X55.9 Y71.3 F500
M03 S255
G90 G1 X56.7 Y71.3 F40
M05
G90 G1 X56.4 Y71.1 F500
M03 S255
G90 G1 X55.6 Y71.1 F40
M05
G90 G1 X55.4 Y70.9 F500
M03 S255
G90 G1 X56.2 Y70.9 F40
M05
G90 G1 X56.0 Y70.7 F500
M03 S255
G90 G1 X55.1 Y70.7 F40
M05
G90 G1 X54.8 Y70.5 F500
M03 S255
G90 G1 X55.7 Y70.5 F40
M05
G90 G1 X55.5 Y70.3 F500
M03 S255
G90 G1 X54.6 Y70.3 F40
M05
G90 G1 X54.2 Y70.1 F500
M03 S255
G90 G1 X55.2 Y70.1 F40
M05
G90 G1 X55.0 Y69.9 F500
M03 S255
G90 G1 X54.0 Y69.9 F40
M05
G90 G1 X53.7 Y69.7 F500
M03 S255
G90 G1 X54.7 Y69.7 F40
M05
G90 G1 X54.4 Y69.5 F500
M03 S255
G90 G1 X53.4 Y69.5 F40
M05
G90 G1 X53.1 Y69.3 F500
M03 S255
G90 G1 X54.1 Y69.3 F40
M05
G90 G1 X53.7 Y69.1 F500
M03 S255
G90 G1 X52.6 Y69.1 F40
M05
G90 G1 X52.3 Y68.9 F500
M03 S255
G90 G1 X53.3 Y68.9 F40
M05
G90 G1 X53.0 Y68.7 F500
M03 S255
G90 G1 X51.9 Y68.7 F40
M05
G90 G1 X52.2 Y68.3 F500
M03 S255
G90 G1 X51.1 Y68.3 F40
M05
G90 G1 X51.4 Y68.5 F500
M03 S255
G90 G1 X52.6 Y68.5 F40
M05
G90 G1 X51.8 Y68.1 F500
M03 S255
G90 G1 X50.5 Y68.1 F40
M05
G90 G1 X50.0 Y67.9 F500
M03 S255
G90 G1 X51.3 Y67.9 F40
M05
G90 G1 X50.9 Y67.7 F500
M03 S255
G90 G1 X49.3 Y67.7 F40
M05
G90 G1 X49.7 Y67.3 F500
M03 S255
G90 G1 X45.4 Y67.3 F40
M05
G90 G1 X44.9 Y67.5 F500
M03 S255
G90 G1 X46.8 Y67.5 F40
M05
G90 G1 X46.1 Y67.1 F500
M03 S255
G90 G1 X49.0 Y67.1 F40
M05
G90 G1 X48.3 Y67.5 F500
M03 S255
G90 G1 X50.4 Y67.5 F40
M05
G90 G1 X45.8 Y67.7 F500
M03 S255
G90 G1 X44.4 Y67.7 F40
M05
G90 G1 X44.0 Y67.9 F500
M03 S255
G90 G1 X45.2 Y67.9 F40
M05
G90 G1 X44.8 Y68.1 F500
M03 S255
G90 G1 X43.7 Y68.1 F40
M05
G90 G1 X43.4 Y68.3 F500
M03 S255
G90 G1 X44.3 Y68.3 F40
M05
G90 G1 X44.0 Y68.5 F500
M03 S255
G90 G1 X43.1 Y68.5 F40
M05
G90 G1 X42.8 Y68.7 F500
M03 S255
G90 G1 X43.7 Y68.7 F40
M05
G90 G1 X43.4 Y68.9 F500
M03 S255
G90 G1 X42.5 Y68.9 F40
M05
G90 G1 X42.3 Y69.1 F500
M03 S255
G90 G1 X43.2 Y69.1 F40
M05
G90 G1 X42.9 Y69.3 F500
M03 S255
G90 G1 X42.0 Y69.3 F40
M05
G90 G1 X41.8 Y69.5 F500
M03 S255
G90 G1 X42.6 Y69.5 F40
M05
G90 G1 X42.4 Y69.7 F500
M03 S255
G90 G1 X41.6 Y69.7 F40
M05
G90 G1 X41.4 Y69.9 F500
M03 S255
G90 G1 X42.2 Y69.9 F40
M05
G90 G1 X42.0 Y70.1 F500
M03 S255
G90 G1 X41.2 Y70.1 F40
M05
G90 G1 X40.9 Y70.3 F500
M03 S255
G90 G1 X41.7 Y70.3 F40
M05
G90 G1 X41.5 Y70.5 F500
M03 S255
G90 G1 X40.8 Y70.5 F40
M05
G90 G1 X40.6 Y70.7 F500
M03 S255
G90 G1 X41.4 Y70.7 F40
M05
G90 G1 X41.3 Y70.9 F500
M03 S255
G90 G1 X40.6 Y70.9 F40
M05
G90 G1 X40.5 Y71.1 F500
M03 S255
G90 G1 X41.2 Y71.1 F40
M05
G90 G1 X41.0 Y71.3 F500
M03 S255
G90 G1 X40.6 Y71.3 F40
M05
G90 G1 X39.6 Y71.5 F500
M03 S255
G90 G1 X37.7 Y71.5 F40
M05
G90 G1 X37.7 Y71.3 F500
M03 S255
G90 G1 X39.5 Y71.3 F40
M05
G90 G1 X39.5 Y71.1 F500
M03 S255
G90 G1 X37.7 Y71.1 F40
M05
G90 G1 X37.7 Y70.9 F500
M03 S255
G90 G1 X39.4 Y70.9 F40
M05
G90 G1 X39.5 Y70.7 F500
M03 S255
G90 G1 X37.7 Y70.7 F40
M05
G90 G1 X37.6 Y70.5 F500
M03 S255
G90 G1 X39.5 Y70.5 F40
M05
G90 G1 X39.5 Y70.3 F500
M03 S255
G90 G1 X37.6 Y70.3 F40
M05
G90 G1 X37.6 Y70.1 F500
M03 S255
G90 G1 X39.6 Y70.1 F40
M05
G90 G1 X39.7 Y69.9 F500
M03 S255
G90 G1 X37.6 Y69.9 F40
M05
G90 G1 X37.4 Y69.7 F500
M03 S255
G90 G1 X39.7 Y69.7 F40
M05
G90 G1 X39.9 Y69.5 F500
M03 S255
G90 G1 X37.4 Y69.5 F40
M05
G90 G1 X37.4 Y69.3 F500
M03 S255
G90 G1 X40.0 Y69.3 F40
M05
G90 G1 X40.2 Y69.1 F500
M03 S255
G90 G1 X37.4 Y69.1 F40
M05
G90 G1 X37.3 Y68.9 F500
M03 S255
G90 G1 X40.3 Y68.9 F40
M05
G90 G1 X40.5 Y68.7 F500
M03 S255
G90 G1 X37.3 Y68.7 F40
M05
G90 G1 X37.3 Y68.5 F500
M03 S255
G90 G1 X40.7 Y68.5 F40
M05
G90 G1 X40.9 Y68.3 F500
M03 S255
G90 G1 X37.2 Y68.3 F40
M05
G90 G1 X37.2 Y68.1 F500
M03 S255
G90 G1 X41.2 Y68.1 F40
M05
G90 G1 X41.4 Y67.9 F500
M03 S255
G90 G1 X37.1 Y67.9 F40
M05
G90 G1 X37.1 Y67.7 F500
M03 S255
G90 G1 X41.7 Y67.7 F40
M05
G90 G1 X39.6 Y71.7 F500
M03 S255
G90 G1 X37.8 Y71.7 F40
M05
G90 G1 X37.8 Y71.9 F500
M03 S255
G90 G1 X39.7 Y71.9 F40
M05
G90 G1 X39.9 Y72.1 F500
M03 S255
G90 G1 X37.8 Y72.1 F40
M05
G90 G1 X37.8 Y72.3 F500
M03 S255
G90 G1 X40.1 Y72.3 F40
M05
G90 G1 X40.4 Y72.5 F500
M03 S255
G90 G1 X37.8 Y72.5 F40
M05
G90 G1 X37.8 Y72.7 F500
M03 S255
G90 G1 X40.6 Y72.7 F40
M05
G90 G1 X40.9 Y72.9 F500
M03 S255
G90 G1 X37.8 Y72.9 F40
M05
G90 G1 X37.8 Y73.1 F500
M03 S255
G90 G1 X41.1 Y73.1 F40
M05
G90 G1 X41.4 Y73.3 F500
M03 S255
G90 G1 X37.8 Y73.3 F40
M05
G90 G1 X37.8 Y73.5 F500
M03 S255
G90 G1 X41.7 Y73.5 F40
M05
G90 G1 X42.0 Y73.7 F500
M03 S255
G90 G1 X37.8 Y73.7 F40
M05
G90 G1 X41.5 Y76.9 F500
M03 S255
G90 G1 X44.5 Y76.9 F40
M05
G90 G1 X44.5 Y77.1 F500
M03 S255
G90 G1 X41.4 Y77.1 F40
M05
G90 G1 X41.4 Y77.3 F500
M03 S255
G90 G1 X44.5 Y77.3 F40
M05
G90 G1 X44.5 Y77.5 F500
M03 S255
G90 G1 X41.4 Y77.5 F40
M05
G90 G1 X41.4 Y77.7 F500
M03 S255
G90 G1 X44.5 Y77.7 F40
M05
G90 G1 X44.4 Y77.9 F500
M03 S255
G90 G1 X41.4 Y77.9 F40
M05
G90 G1 X41.4 Y78.1 F500
M03 S255
G90 G1 X44.4 Y78.1 F40
M05
G90 G1 X44.4 Y78.3 F500
M03 S255
G90 G1 X41.4 Y78.3 F40
M05
G90 G1 X41.4 Y78.5 F500
M03 S255
G90 G1 X44.3 Y78.5 F40
M05
G90 G1 X44.3 Y78.7 F500
M03 S255
G90 G1 X41.5 Y78.7 F40
M05
G90 G1 X41.5 Y78.9 F500
M03 S255
G90 G1 X44.2 Y78.9 F40
M05
G90 G1 X44.1 Y79.1 F500
M03 S255
G90 G1 X41.6 Y79.1 F40
M05
G90 G1 X41.6 Y79.3 F500
M03 S255
G90 G1 X44.0 Y79.3 F40
M05
G90 G1 X43.9 Y79.5 F500
M03 S255
G90 G1 X41.7 Y79.5 F40
M05
G90 G1 X41.8 Y79.7 F500
M03 S255
G90 G1 X43.8 Y79.7 F40
M05
G90 G1 X43.6 Y79.9 F500
M03 S255
G90 G1 X42.0 Y79.9 F40
M05
G90 G1 X42.2 Y80.1 F500
M03 S255
G90 G1 X43.4 Y80.1 F40
M05
G90 G1 X45.6 Y75.3 F500
M03 S255
G90 G1 X47.0 Y75.3 F40
M05
G90 G1 X46.9 Y75.1 F500
M03 S255
G90 G1 X45.3 Y75.1 F40
M05
G90 G1 X45.3 Y74.9 F500
M03 S255
G90 G1 X46.3 Y74.9 F40
M05
G90 G1 X46.0 Y74.7 F500
M03 S255
G90 G1 X45.4 Y74.7 F40
M05
G90 G1 X46.3 Y75.5 F500
M03 S255
G90 G1 X46.6 Y75.5 F40
M05
G90 G1 X49.2 Y75.3 F500
M03 S255
G90 G1 X50.6 Y75.3 F40
M05
G90 G1 X50.8 Y75.1 F500
M03 S255
G90 G1 X49.3 Y75.1 F40
M05
G90 G1 X49.6 Y75.5 F500
M03 S255
G90 G1 X49.9 Y75.5 F40
M05
G90 G1 X49.8 Y74.9 F500
M03 S255
G90 G1 X50.9 Y74.9 F40
M05
G90 G1 X50.7 Y74.7 F500
M03 S255
G90 G1 X50.2 Y74.7 F40
M05
G90 G1 X53.9 Y80.9 F500
M03 S255
G90 G1 X54.8 Y80.9 F40
M05
G90 G1 X59.3 Y68.7 F500
M03 S255
G90 G1 X67.4 Y68.7 F40
M05
G90 G1 X67.4 Y68.5 F500
M03 S255
G90 G1 X59.3 Y68.5 F40
M05
G90 G1 X59.4 Y68.3 F500
M03 S255
G90 G1 X67.5 Y68.3 F40
M05
G90 G1 X67.5 Y68.1 F500
M03 S255
G90 G1 X59.4 Y68.1 F40
M05
G90 G1 X59.5 Y67.9 F500
M03 S255
G90 G1 X67.6 Y67.9 F40
M05
G90 G1 X67.8 Y67.7 F500
M03 S255
G90 G1 X59.5 Y67.7 F40
M05
G90 G1 X59.6 Y67.5 F500
M03 S255
G90 G1 X67.8 Y67.5 F40
M05
G90 G1 X67.9 Y67.3 F500
M03 S255
G90 G1 X59.7 Y67.3 F40
M05
G90 G1 X59.7 Y67.1 F500
M03 S255
G90 G1 X68.0 Y67.1 F40
M05
G90 G1 X68.1 Y66.9 F500
M03 S255
G90 G1 X59.8 Y66.9 F40
M05
G90 G1 X59.8 Y66.7 F500
M03 S255
G90 G1 X68.2 Y66.7 F40
M05
G90 G1 X68.3 Y66.5 F500
M03 S255
G90 G1 X59.9 Y66.5 F40
M05
G90 G1 X59.9 Y66.3 F500
M03 S255
G90 G1 X68.4 Y66.3 F40
M05
G90 G1 X68.5 Y66.1 F500
M03 S255
G90 G1 X60.0 Y66.1 F40
M05
G90 G1 X60.1 Y65.9 F500
M03 S255
G90 G1 X68.6 Y65.9 F40
M05
G90 G1 X68.7 Y65.7 F500
M03 S255
G90 G1 X60.2 Y65.7 F40
M05
G90 G1 X60.2 Y65.5 F500
M03 S255
G90 G1 X68.9 Y65.5 F40
M05
G90 G1 X69.0 Y65.3 F500
M03 S255
G90 G1 X60.3 Y65.3 F40
M05
G90 G1 X60.3 Y65.1 F500
M03 S255
G90 G1 X69.1 Y65.1 F40
M05
G90 G1 X69.2 Y64.9 F500
M03 S255
G90 G1 X60.4 Y64.9 F40
M05
G90 G1 X60.5 Y64.7 F500
M03 S255
G90 G1 X69.4 Y64.7 F40
M05
G90 G1 X69.5 Y64.5 F500
M03 S255
G90 G1 X60.5 Y64.5 F40
M05
G90 G1 X60.6 Y64.3 F500
M03 S255
G90 G1 X69.6 Y64.3 F40
M05
G90 G1 X69.7 Y64.1 F500
M03 S255
G90 G1 X60.7 Y64.1 F40
M05
G90 G1 X60.8 Y63.9 F500
M03 S255
G90 G1 X69.9 Y63.9 F40
M05
G90 G1 X70.0 Y63.7 F500
M03 S255
G90 G1 X60.8 Y63.7 F40
M05
G90 G1 X60.9 Y63.5 F500
M03 S255
G90 G1 X70.1 Y63.5 F40
M05
G90 G1 X70.3 Y63.3 F500
M03 S255
G90 G1 X61.0 Y63.3 F40
M05
G90 G1 X61.0 Y63.1 F500
M03 S255
G90 G1 X70.5 Y63.1 F40
M05
G90 G1 X70.6 Y62.9 F500
M03 S255
G90 G1 X61.1 Y62.9 F40
M05
G90 G1 X61.2 Y62.7 F500
M03 S255
G90 G1 X70.7 Y62.7 F40
M05
G90 G1 X70.9 Y62.5 F500
M03 S255
G90 G1 X61.3 Y62.5 F40
M05
G90 G1 X61.3 Y62.3 F500
M03 S255
G90 G1 X71.1 Y62.3 F40
M05
G90 G1 X71.2 Y62.1 F500
M03 S255
G90 G1 X61.4 Y62.1 F40
M05
G90 G1 X61.5 Y61.9 F500
M03 S255
G90 G1 X71.4 Y61.9 F40
M05
G90 G1 X71.5 Y61.7 F500
M03 S255
G90 G1 X61.5 Y61.7 F40
M05
G90 G1 X61.6 Y61.5 F500
M03 S255
G90 G1 X71.7 Y61.5 F40
M05
G90 G1 X71.8 Y61.3 F500
M03 S255
G90 G1 X61.7 Y61.3 F40
M05
G90 G1 X61.8 Y61.1 F500
M03 S255
G90 G1 X72.0 Y61.1 F40
M05
G90 G1 X72.1 Y60.9 F500
M03 S255
G90 G1 X61.9 Y60.9 F40
M05
G90 G1 X61.9 Y60.7 F500
M03 S255
G90 G1 X72.3 Y60.7 F40
M05
G90 G1 X72.5 Y60.5 F500
M03 S255
G90 G1 X62.0 Y60.5 F40
M05
G90 G1 X62.1 Y60.3 F500
M03 S255
G90 G1 X72.6 Y60.3 F40
M05
G90 G1 X72.8 Y60.1 F500
M03 S255
G90 G1 X62.1 Y60.1 F40
M05
G90 G1 X62.2 Y59.9 F500
M03 S255
G90 G1 X72.9 Y59.9 F40
M05
G90 G1 X73.1 Y59.7 F500
M03 S255
G90 G1 X62.3 Y59.7 F40
M05
G90 G1 X62.4 Y59.5 F500
M03 S255
G90 G1 X73.3 Y59.5 F40
M05
G90 G1 X73.5 Y59.3 F500
M03 S255
G90 G1 X62.5 Y59.3 F40
M05
G90 G1 X62.5 Y59.1 F500
M03 S255
G90 G1 X73.6 Y59.1 F40
M05
G90 G1 X73.8 Y58.9 F500
M03 S255
G90 G1 X62.6 Y58.9 F40
M05
G90 G1 X62.7 Y58.7 F500
M03 S255
G90 G1 X73.9 Y58.7 F40
M05
G90 G1 X74.1 Y58.5 F500
M03 S255
G90 G1 X62.8 Y58.5 F40
M05
G90 G1 X62.9 Y58.3 F500
M03 S255
G90 G1 X74.2 Y58.3 F40
M05
G90 G1 X74.4 Y58.1 F500
M03 S255
G90 G1 X63.0 Y58.1 F40
M05
G90 G1 X63.0 Y57.9 F500
M03 S255
G90 G1 X74.6 Y57.9 F40
M05
G90 G1 X74.7 Y57.7 F500
M03 S255
G90 G1 X63.1 Y57.7 F40
M05
G90 G1 X63.2 Y57.5 F500
M03 S255
G90 G1 X74.9 Y57.5 F40
M05
G90 G1 X75.0 Y57.3 F500
M03 S255
G90 G1 X63.3 Y57.3 F40
M05
G90 G1 X63.4 Y57.1 F500
M03 S255
G90 G1 X75.2 Y57.1 F40
M05
G90 G1 X75.3 Y56.9 F500
M03 S255
G90 G1 X63.5 Y56.9 F40
M05
G90 G1 X63.5 Y56.7 F500
M03 S255
G90 G1 X75.5 Y56.7 F40
M05
G90 G1 X75.7 Y56.5 F500
M03 S255
G90 G1 X63.6 Y56.5 F40
M05
G90 G1 X63.7 Y56.3 F500
M03 S255
G90 G1 X75.8 Y56.3 F40
M05
G90 G1 X75.9 Y56.1 F500
M03 S255
G90 G1 X63.8 Y56.1 F40
M05
G90 G1 X63.9 Y55.9 F500
M03 S255
G90 G1 X67.4 Y55.9 F40
M05
G90 G1 X67.4 Y55.7 F500
M03 S255
G90 G1 X64.0 Y55.7 F40
M05
G90 G1 X64.1 Y55.5 F500
M03 S255
G90 G1 X67.5 Y55.5 F40
M05
G90 G1 X67.7 Y55.3 F500
M03 S255
G90 G1 X64.1 Y55.3 F40
M05
G90 G1 X64.2 Y55.1 F500
M03 S255
G90 G1 X67.9 Y55.1 F40
M05
G90 G1 X68.1 Y54.9 F500
M03 S255
G90 G1 X64.3 Y54.9 F40
M05
G90 G1 X64.4 Y54.7 F500
M03 S255
G90 G1 X68.3 Y54.7 F40
M05
G90 G1 X68.5 Y54.5 F500
M03 S255
G90 G1 X64.5 Y54.5 F40
M05
G90 G1 X64.6 Y54.3 F500
M03 S255
G90 G1 X68.6 Y54.3 F40
M05
G90 G1 X68.8 Y54.1 F500
M03 S255
G90 G1 X64.7 Y54.1 F40
M05
G90 G1 X64.8 Y53.9 F500
M03 S255
G90 G1 X69.0 Y53.9 F40
M05
G90 G1 X69.2 Y53.7 F500
M03 S255
G90 G1 X64.9 Y53.7 F40
M05
G90 G1 X65.0 Y53.5 F500
M03 S255
G90 G1 X69.3 Y53.5 F40
M05
G90 G1 X69.5 Y53.3 F500
M03 S255
G90 G1 X65.1 Y53.3 F40
M05
G90 G1 X65.2 Y53.1 F500
M03 S255
G90 G1 X69.6 Y53.1 F40
M05
G90 G1 X69.8 Y52.9 F500
M03 S255
G90 G1 X65.3 Y52.9 F40
M05
G90 G1 X65.4 Y52.7 F500
M03 S255
G90 G1 X69.9 Y52.7 F40
M05
G90 G1 X70.0 Y52.5 F500
M03 S255
G90 G1 X65.5 Y52.5 F40
M05
G90 G1 X65.6 Y52.3 F500
M03 S255
G90 G1 X70.2 Y52.3 F40
M05
G90 G1 X70.3 Y52.1 F500
M03 S255
G90 G1 X65.7 Y52.1 F40
M05
G90 G1 X65.8 Y51.9 F500
M03 S255
G90 G1 X70.4 Y51.9 F40
M05
G90 G1 X70.6 Y51.7 F500
M03 S255
G90 G1 X65.9 Y51.7 F40
M05
G90 G1 X66.0 Y51.5 F500
M03 S255
G90 G1 X70.7 Y51.5 F40
M05
G90 G1 X70.8 Y51.3 F500
M03 S255
G90 G1 X66.1 Y51.3 F40
M05
G90 G1 X66.2 Y51.1 F500
M03 S255
G90 G1 X70.9 Y51.1 F40
M05
G90 G1 X71.0 Y50.9 F500
M03 S255
G90 G1 X66.3 Y50.9 F40
M05
G90 G1 X66.4 Y50.7 F500
M03 S255
G90 G1 X71.1 Y50.7 F40
M05
G90 G1 X71.2 Y50.5 F500
M03 S255
G90 G1 X66.5 Y50.5 F40
M05
G90 G1 X66.6 Y50.3 F500
M03 S255
G90 G1 X71.3 Y50.3 F40
M05
G90 G1 X71.4 Y50.1 F500
M03 S255
G90 G1 X66.7 Y50.1 F40
M05
G90 G1 X66.8 Y49.9 F500
M03 S255
G90 G1 X71.5 Y49.9 F40
M05
G90 G1 X71.6 Y49.7 F500
M03 S255
G90 G1 X66.9 Y49.7 F40
M05
G90 G1 X67.0 Y49.5 F500
M03 S255
G90 G1 X71.7 Y49.5 F40
M05
G90 G1 X71.8 Y49.3 F500
M03 S255
G90 G1 X67.1 Y49.3 F40
M05
G90 G1 X67.2 Y49.1 F500
M03 S255
G90 G1 X71.9 Y49.1 F40
M05
G90 G1 X72.0 Y48.9 F500
M03 S255
G90 G1 X67.3 Y48.9 F40
M05
G90 G1 X67.4 Y48.7 F500
M03 S255
G90 G1 X72.0 Y48.7 F40
M05
G90 G1 X72.1 Y48.5 F500
M03 S255
G90 G1 X67.5 Y48.5 F40
M05
G90 G1 X67.6 Y48.3 F500
M03 S255
G90 G1 X72.2 Y48.3 F40
M05
G90 G1 X72.3 Y48.1 F500
M03 S255
G90 G1 X67.7 Y48.1 F40
M05
G90 G1 X67.7 Y47.9 F500
M03 S255
G90 G1 X72.4 Y47.9 F40
M05
G90 G1 X72.4 Y47.7 F500
M03 S255
G90 G1 X67.8 Y47.7 F40
M05
G90 G1 X67.9 Y47.5 F500
M03 S255
G90 G1 X72.5 Y47.5 F40
M05
G90 G1 X72.5 Y47.3 F500
M03 S255
G90 G1 X68.0 Y47.3 F40
M05
G90 G1 X68.1 Y47.1 F500
M03 S255
G90 G1 X72.6 Y47.1 F40
M05
G90 G1 X72.6 Y46.9 F500
M03 S255
G90 G1 X68.2 Y46.9 F40
M05
G90 G1 X68.2 Y46.7 F500
M03 S255
G90 G1 X72.7 Y46.7 F40
M05
G90 G1 X72.7 Y46.5 F500
M03 S255
G90 G1 X68.3 Y46.5 F40
M05
G90 G1 X68.4 Y46.3 F500
M03 S255
G90 G1 X72.8 Y46.3 F40
M05
G90 G1 X72.9 Y46.1 F500
M03 S255
G90 G1 X68.5 Y46.1 F40
M05
G90 G1 X68.6 Y45.9 F500
M03 S255
G90 G1 X72.9 Y45.9 F40
M05
G90 G1 X72.9 Y45.7 F500
M03 S255
G90 G1 X68.7 Y45.7 F40
M05
G90 G1 X68.7 Y45.5 F500
M03 S255
G90 G1 X73.0 Y45.5 F40
M05
G90 G1 X73.0 Y45.3 F500
M03 S255
G90 G1 X68.8 Y45.3 F40
M05
G90 G1 X68.9 Y45.1 F500
M03 S255
G90 G1 X73.0 Y45.1 F40
M05
G90 G1 X73.1 Y44.9 F500
M03 S255
G90 G1 X68.9 Y44.9 F40
M05
G90 G1 X69.0 Y44.7 F500
M03 S255
G90 G1 X73.1 Y44.7 F40
M05
G90 G1 X73.1 Y44.5 F500
M03 S255
G90 G1 X69.1 Y44.5 F40
M05
G90 G1 X69.2 Y44.3 F500
M03 S255
G90 G1 X73.1 Y44.3 F40
M05
G90 G1 X73.1 Y44.1 F500
M03 S255
G90 G1 X69.2 Y44.1 F40
M05
G90 G1 X69.3 Y43.9 F500
M03 S255
G90 G1 X73.1 Y43.9 F40
M05
G90 G1 X73.2 Y43.7 F500
M03 S255
G90 G1 X69.3 Y43.7 F40
M05
G90 G1 X69.4 Y43.5 F500
M03 S255
G90 G1 X73.2 Y43.5 F40
M05
G90 G1 X73.2 Y43.3 F500
M03 S255
G90 G1 X69.5 Y43.3 F40
M05
G90 G1 X69.5 Y43.1 F500
M03 S255
G90 G1 X73.2 Y43.1 F40
M05
G90 G1 X73.2 Y42.9 F500
M03 S255
G90 G1 X69.6 Y42.9 F40
M05
G90 G1 X69.7 Y42.7 F500
M03 S255
G90 G1 X73.2 Y42.7 F40
M05
G90 G1 X73.1 Y42.5 F500
M03 S255
G90 G1 X69.7 Y42.5 F40
M05
G90 G1 X69.8 Y42.3 F500
M03 S255
G90 G1 X73.1 Y42.3 F40
M05
G90 G1 X73.1 Y42.1 F500
M03 S255
G90 G1 X69.8 Y42.1 F40
M05
G90 G1 X69.8 Y41.9 F500
M03 S255
G90 G1 X73.1 Y41.9 F40
M05
G90 G1 X73.1 Y41.7 F500
M03 S255
G90 G1 X69.9 Y41.7 F40
M05
G90 G1 X70.0 Y41.5 F500
M03 S255
G90 G1 X73.1 Y41.5 F40
M05
G90 G1 X73.0 Y41.3 F500
M03 S255
G90 G1 X70.0 Y41.3 F40
M05
G90 G1 X70.1 Y41.1 F500
M03 S255
G90 G1 X73.0 Y41.1 F40
M05
G90 G1 X73.0 Y40.9 F500
M03 S255
G90 G1 X70.1 Y40.9 F40
M05
G90 G1 X70.2 Y40.7 F500
M03 S255
G90 G1 X72.9 Y40.7 F40
M05
G90 G1 X72.9 Y40.5 F500
M03 S255
G90 G1 X70.2 Y40.5 F40
M05
G90 G1 X70.2 Y40.3 F500
M03 S255
G90 G1 X72.8 Y40.3 F40
M05
G90 G1 X72.7 Y40.1 F500
M03 S255
G90 G1 X70.3 Y40.1 F40
M05
G90 G1 X70.3 Y39.9 F500
M03 S255
G90 G1 X72.7 Y39.9 F40
M05
G90 G1 X72.6 Y39.7 F500
M03 S255
G90 G1 X70.4 Y39.7 F40
M05
G90 G1 X70.4 Y39.5 F500
M03 S255
G90 G1 X72.6 Y39.5 F40
M05
G90 G1 X72.5 Y39.3 F500
M03 S255
G90 G1 X71.7 Y39.3 F40
M05
G90 G1 X72.7 Y37.7 F500
M03 S255
G90 G1 X69.8 Y37.7 F40
M05
G90 G1 X69.4 Y37.5 F500
M03 S255
G90 G1 X73.3 Y37.5 F40
M05
G90 G1 X74.0 Y37.3 F500
M03 S255
G90 G1 X69.1 Y37.3 F40
M05
G90 G1 X68.9 Y37.1 F500
M03 S255
G90 G1 X74.5 Y37.1 F40
M05
G90 G1 X75.0 Y36.9 F500
M03 S255
G90 G1 X68.7 Y36.9 F40
M05
G90 G1 X68.5 Y36.7 F500
M03 S255
G90 G1 X75.4 Y36.7 F40
M05
G90 G1 X75.8 Y36.5 F500
M03 S255
G90 G1 X68.4 Y36.5 F40
M05
G90 G1 X68.3 Y36.3 F500
M03 S255
G90 G1 X76.2 Y36.3 F40
M05
G90 G1 X76.6 Y36.1 F500
M03 S255
G90 G1 X68.2 Y36.1 F40
M05
G90 G1 X68.1 Y35.9 F500
M03 S255
G90 G1 X76.9 Y35.9 F40
M05
G90 G1 X77.2 Y35.7 F500
M03 S255
G90 G1 X68.1 Y35.7 F40
M05
G90 G1 X68.0 Y35.5 F500
M03 S255
G90 G1 X77.5 Y35.5 F40
M05
G90 G1 X77.8 Y35.3 F500
M03 S255
G90 G1 X68.0 Y35.3 F40
M05
G90 G1 X68.0 Y35.1 F500
M03 S255
G90 G1 X78.1 Y35.1 F40
M05
G90 G1 X78.3 Y34.9 F500
M03 S255
G90 G1 X67.9 Y34.9 F40
M05
G90 G1 X67.9 Y34.7 F500
M03 S255
G90 G1 X78.5 Y34.7 F40
M05
G90 G1 X78.7 Y34.5 F500
M03 S255
G90 G1 X67.7 Y34.5 F40
M05
G90 G1 X67.2 Y34.3 F500
M03 S255
G90 G1 X78.8 Y34.3 F40
M05
G90 G1 X78.9 Y34.1 F500
M03 S255
G90 G1 X66.8 Y34.1 F40
M05
G90 G1 X66.6 Y33.9 F500
M03 S255
G90 G1 X79.1 Y33.9 F40
M05
G90 G1 X79.2 Y33.7 F500
M03 S255
G90 G1 X66.3 Y33.7 F40
M05
G90 G1 X66.0 Y33.5 F500
M03 S255
G90 G1 X79.2 Y33.5 F40
M05
G90 G1 X79.3 Y33.3 F500
M03 S255
G90 G1 X65.8 Y33.3 F40
M05
G90 G1 X65.6 Y33.1 F500
M03 S255
G90 G1 X67.6 Y33.1 F40
M05
G90 G1 X67.8 Y33.1 F500
M03 S255
G90 G1 X79.3 Y33.1 F40
M05
G90 G1 X79.3 Y32.9 F500
M03 S255
G90 G1 X67.8 Y32.9 F40
M05
G90 G1 X67.9 Y32.7 F500
M03 S255
G90 G1 X79.3 Y32.7 F40
M05
G90 G1 X79.3 Y32.5 F500
M03 S255
G90 G1 X67.9 Y32.5 F40
M05
G90 G1 X68.0 Y32.3 F500
M03 S255
G90 G1 X79.2 Y32.3 F40
M05
G90 G1 X79.2 Y32.1 F500
M03 S255
G90 G1 X68.0 Y32.1 F40
M05
G90 G1 X68.0 Y31.9 F500
M03 S255
G90 G1 X82.1 Y31.9 F40
M05
G90 G1 X82.1 Y32.1 F500
M03 S255
G90 G1 X79.9 Y32.1 F40
M05
G90 G1 X80.0 Y32.3 F500
M03 S255
G90 G1 X82.2 Y32.3 F40
M05
G90 G1 X82.3 Y32.5 F500
M03 S255
G90 G1 X80.1 Y32.5 F40
M05
G90 G1 X80.1 Y32.7 F500
M03 S255
G90 G1 X82.4 Y32.7 F40
M05
G90 G1 X82.4 Y32.9 F500
M03 S255
G90 G1 X80.1 Y32.9 F40
M05
G90 G1 X80.1 Y33.1 F500
M03 S255
G90 G1 X82.5 Y33.1 F40
M05
G90 G1 X82.5 Y33.3 F500
M03 S255
G90 G1 X80.1 Y33.3 F40
M05
G90 G1 X80.1 Y33.5 F500
M03 S255
G90 G1 X82.6 Y33.5 F40
M05
G90 G1 X82.6 Y33.7 F500
M03 S255
G90 G1 X80.1 Y33.7 F40
M05
G90 G1 X80.0 Y33.9 F500
M03 S255
G90 G1 X82.6 Y33.9 F40
M05
G90 G1 X82.7 Y34.1 F500
M03 S255
G90 G1 X80.0 Y34.1 F40
M05
G90 G1 X79.9 Y34.3 F500
M03 S255
G90 G1 X82.7 Y34.3 F40
M05
G90 G1 X82.7 Y34.5 F500
M03 S255
G90 G1 X79.8 Y34.5 F40
M05
G90 G1 X79.7 Y34.7 F500
M03 S255
G90 G1 X82.7 Y34.7 F40
M05
G90 G1 X82.8 Y34.9 F500
M03 S255
G90 G1 X79.6 Y34.9 F40
M05
G90 G1 X79.4 Y35.1 F500
M03 S255
G90 G1 X82.8 Y35.1 F40
M05
G90 G1 X82.9 Y35.3 F500
M03 S255
G90 G1 X79.3 Y35.3 F40
M05
G90 G1 X79.1 Y35.5 F500
M03 S255
G90 G1 X82.9 Y35.5 F40
M05
G90 G1 X83.0 Y35.7 F500
M03 S255
G90 G1 X78.9 Y35.7 F40
M05
G90 G1 X78.7 Y35.9 F500
M03 S255
G90 G1 X83.0 Y35.9 F40
M05
G90 G1 X83.0 Y36.1 F500
M03 S255
G90 G1 X78.5 Y36.1 F40
M05
G90 G1 X78.2 Y36.3 F500
M03 S255
G90 G1 X83.0 Y36.3 F40
M05
G90 G1 X83.0 Y36.5 F500
M03 S255
G90 G1 X77.9 Y36.5 F40
M05
G90 G1 X77.7 Y36.7 F500
M03 S255
G90 G1 X83.0 Y36.7 F40
M05
G90 G1 X83.0 Y36.9 F500
M03 S255
G90 G1 X77.3 Y36.9 F40
M05
G90 G1 X77.1 Y37.1 F500
M03 S255
G90 G1 X83.0 Y37.1 F40
M05
G90 G1 X83.0 Y37.3 F500
M03 S255
G90 G1 X76.7 Y37.3 F40
M05
G90 G1 X76.3 Y37.5 F500
M03 S255
G90 G1 X83.0 Y37.5 F40
M05
G90 G1 X83.0 Y37.7 F500
M03 S255
G90 G1 X76.0 Y37.7 F40
M05
G90 G1 X75.5 Y37.9 F500
M03 S255
G90 G1 X83.0 Y37.9 F40
M05
G90 G1 X83.0 Y38.1 F500
M03 S255
G90 G1 X75.2 Y38.1 F40
M05
G90 G1 X74.8 Y38.3 F500
M03 S255
G90 G1 X83.0 Y38.3 F40
M05
G90 G1 X83.0 Y38.5 F500
M03 S255
G90 G1 X74.3 Y38.5 F40
M05
G90 G1 X74.3 Y38.7 F500
M03 S255
G90 G1 X83.0 Y38.7 F40
M05
G90 G1 X83.0 Y38.9 F500
M03 S255
G90 G1 X74.3 Y38.9 F40
M05
G90 G1 X74.4 Y39.1 F500
M03 S255
G90 G1 X83.0 Y39.1 F40
M05
G90 G1 X83.0 Y39.3 F500
M03 S255
G90 G1 X74.4 Y39.3 F40
M05
G90 G1 X74.4 Y39.5 F500
M03 S255
G90 G1 X83.0 Y39.5 F40
M05
G90 G1 X83.0 Y39.7 F500
M03 S255
G90 G1 X74.5 Y39.7 F40
M05
G90 G1 X74.5 Y39.9 F500
M03 S255
G90 G1 X83.0 Y39.9 F40
M05
G90 G1 X82.9 Y40.1 F500
M03 S255
G90 G1 X74.5 Y40.1 F40
M05
G90 G1 X74.5 Y40.3 F500
M03 S255
G90 G1 X82.8 Y40.3 F40
M05
G90 G1 X82.9 Y40.5 F500
M03 S255
G90 G1 X74.5 Y40.5 F40
M05
G90 G1 X74.6 Y40.7 F500
M03 S255
G90 G1 X82.8 Y40.7 F40
M05
G90 G1 X82.8 Y40.9 F500
M03 S255
G90 G1 X74.6 Y40.9 F40
M05
G90 G1 X74.6 Y41.1 F500
M03 S255
G90 G1 X82.7 Y41.1 F40
M05
G90 G1 X82.7 Y41.3 F500
M03 S255
G90 G1 X74.6 Y41.3 F40
M05
G90 G1 X74.6 Y41.5 F500
M03 S255
G90 G1 X82.7 Y41.5 F40
M05
G90 G1 X82.7 Y41.7 F500
M03 S255
G90 G1 X74.6 Y41.7 F40
M05
G90 G1 X74.6 Y41.9 F500
M03 S255
G90 G1 X82.6 Y41.9 F40
M05
G90 G1 X82.6 Y42.1 F500
M03 S255
G90 G1 X74.6 Y42.1 F40
M05
G90 G1 X74.6 Y42.3 F500
M03 S255
G90 G1 X82.6 Y42.3 F40
M05
G90 G1 X82.5 Y42.5 F500
M03 S255
G90 G1 X74.6 Y42.5 F40
M05
G90 G1 X74.6 Y42.7 F500
M03 S255
G90 G1 X82.5 Y42.7 F40
M05
G90 G1 X82.5 Y42.9 F500
M03 S255
G90 G1 X74.5 Y42.9 F40
M05
G90 G1 X74.5 Y43.1 F500
M03 S255
G90 G1 X82.4 Y43.1 F40
M05
G90 G1 X82.4 Y43.3 F500
M03 S255
G90 G1 X74.5 Y43.3 F40
M05
G90 G1 X74.5 Y43.5 F500
M03 S255
G90 G1 X82.2 Y43.5 F40
M05
G90 G1 X82.2 Y43.7 F500
M03 S255
G90 G1 X74.4 Y43.7 F40
M05
G90 G1 X74.4 Y43.9 F500
M03 S255
G90 G1 X82.1 Y43.9 F40
M05
G90 G1 X82.1 Y44.1 F500
M03 S255
G90 G1 X74.4 Y44.1 F40
M05
G90 G1 X74.4 Y44.3 F500
M03 S255
G90 G1 X82.0 Y44.3 F40
M05
G90 G1 X82.0 Y44.5 F500
M03 S255
G90 G1 X74.3 Y44.5 F40
M05
G90 G1 X74.3 Y44.7 F500
M03 S255
G90 G1 X82.0 Y44.7 F40
M05
G90 G1 X81.9 Y44.9 F500
M03 S255
G90 G1 X74.2 Y44.9 F40
M05
G90 G1 X74.2 Y45.1 F500
M03 S255
G90 G1 X81.8 Y45.1 F40
M05
G90 G1 X81.7 Y45.3 F500
M03 S255
G90 G1 X74.1 Y45.3 F40
M05
G90 G1 X74.1 Y45.5 F500
M03 S255
G90 G1 X81.6 Y45.5 F40
M05
G90 G1 X81.6 Y45.7 F500
M03 S255
G90 G1 X74.0 Y45.7 F40
M05
G90 G1 X74.0 Y45.9 F500
M03 S255
G90 G1 X81.5 Y45.9 F40
M05
G90 G1 X81.5 Y46.1 F500
M03 S255
G90 G1 X73.9 Y46.1 F40
M05
G90 G1 X73.9 Y46.3 F500
M03 S255
G90 G1 X81.4 Y46.3 F40
M05
G90 G1 X81.4 Y46.5 F500
M03 S255
G90 G1 X73.8 Y46.5 F40
M05
G90 G1 X73.7 Y46.7 F500
M03 S255
G90 G1 X81.2 Y46.7 F40
M05
G90 G1 X81.1 Y46.9 F500
M03 S255
G90 G1 X73.7 Y46.9 F40
M05
G90 G1 X73.6 Y47.1 F500
M03 S255
G90 G1 X81.1 Y47.1 F40
M05
G90 G1 X81.0 Y47.3 F500
M03 S255
G90 G1 X73.5 Y47.3 F40
M05
G90 G1 X73.4 Y47.5 F500
M03 S255
G90 G1 X80.9 Y47.5 F40
M05
G90 G1 X80.8 Y47.7 F500
M03 S255
G90 G1 X73.4 Y47.7 F40
M05
G90 G1 X73.3 Y47.9 F500
M03 S255
G90 G1 X80.7 Y47.9 F40
M05
G90 G1 X80.6 Y48.1 F500
M03 S255
G90 G1 X73.2 Y48.1 F40
M05
G90 G1 X73.1 Y48.3 F500
M03 S255
G90 G1 X80.5 Y48.3 F40
M05
G90 G1 X80.5 Y48.5 F500
M03 S255
G90 G1 X73.0 Y48.5 F40
M05
G90 G1 X72.9 Y48.7 F500
M03 S255
G90 G1 X80.4 Y48.7 F40
M05
G90 G1 X80.3 Y48.9 F500
M03 S255
G90 G1 X72.8 Y48.9 F40
M05
G90 G1 X72.8 Y49.1 F500
M03 S255
G90 G1 X80.1 Y49.1 F40
M05
G90 G1 X80.1 Y49.3 F500
M03 S255
G90 G1 X72.7 Y49.3 F40
M05
G90 G1 X72.5 Y49.5 F500
M03 S255
G90 G1 X80.0 Y49.5 F40
M05
G90 G1 X79.9 Y49.7 F500
M03 S255
G90 G1 X72.4 Y49.7 F40
M05
G90 G1 X72.3 Y49.9 F500
M03 S255
G90 G1 X79.8 Y49.9 F40
M05
G90 G1 X79.6 Y50.1 F500
M03 S255
G90 G1 X72.3 Y50.1 F40
M05
G90 G1 X72.1 Y50.3 F500
M03 S255
G90 G1 X79.5 Y50.3 F40
M05
G90 G1 X79.5 Y50.5 F500
M03 S255
G90 G1 X72.0 Y50.5 F40
M05
G90 G1 X71.9 Y50.7 F500
M03 S255
G90 G1 X79.4 Y50.7 F40
M05
G90 G1 X79.3 Y50.9 F500
M03 S255
G90 G1 X71.8 Y50.9 F40
M05
G90 G1 X71.7 Y51.1 F500
M03 S255
G90 G1 X79.1 Y51.1 F40
M05
G90 G1 X79.0 Y51.3 F500
M03 S255
G90 G1 X71.5 Y51.3 F40
M05
G90 G1 X71.4 Y51.5 F500
M03 S255
G90 G1 X78.9 Y51.5 F40
M05
G90 G1 X78.8 Y51.7 F500
M03 S255
G90 G1 X71.3 Y51.7 F40
M05
G90 G1 X71.2 Y51.9 F500
M03 S255
G90 G1 X78.6 Y51.9 F40
M05
G90 G1 X78.5 Y52.1 F500
M03 S255
G90 G1 X71.0 Y52.1 F40
M05
G90 G1 X70.9 Y52.3 F500
M03 S255
G90 G1 X78.4 Y52.3 F40
M05
G90 G1 X78.3 Y52.5 F500
M03 S255
G90 G1 X70.7 Y52.5 F40
M05
G90 G1 X70.6 Y52.7 F500
M03 S255
G90 G1 X78.2 Y52.7 F40
M05
G90 G1 X78.0 Y52.9 F500
M03 S255
G90 G1 X70.4 Y52.9 F40
M05
G90 G1 X70.3 Y53.1 F500
M03 S255
G90 G1 X77.9 Y53.1 F40
M05
G90 G1 X77.8 Y53.3 F500
M03 S255
G90 G1 X70.2 Y53.3 F40
M05
G90 G1 X70.0 Y53.5 F500
M03 S255
G90 G1 X77.7 Y53.5 F40
M05
G90 G1 X77.6 Y53.7 F500
M03 S255
G90 G1 X69.8 Y53.7 F40
M05
G90 G1 X69.7 Y53.9 F500
M03 S255
G90 G1 X77.4 Y53.9 F40
M05
G90 G1 X77.3 Y54.1 F500
M03 S255
G90 G1 X69.5 Y54.1 F40
M05
G90 G1 X69.4 Y54.3 F500
M03 S255
G90 G1 X77.2 Y54.3 F40
M05
G90 G1 X77.0 Y54.5 F500
M03 S255
G90 G1 X69.2 Y54.5 F40
M05
G90 G1 X69.0 Y54.7 F500
M03 S255
G90 G1 X76.9 Y54.7 F40
M05
G90 G1 X76.8 Y54.9 F500
M03 S255
G90 G1 X68.8 Y54.9 F40
M05
G90 G1 X68.6 Y55.1 F500
M03 S255
G90 G1 X76.7 Y55.1 F40
M05
G90 G1 X76.5 Y55.3 F500
M03 S255
G90 G1 X68.4 Y55.3 F40
M05
G90 G1 X68.2 Y55.5 F500
M03 S255
G90 G1 X76.3 Y55.5 F40
M05
G90 G1 X76.2 Y55.7 F500
M03 S255
G90 G1 X68.0 Y55.7 F40
M05
G90 G1 X67.8 Y55.9 F500
M03 S255
G90 G1 X76.0 Y55.9 F40
M05
G90 G1 X67.3 Y32.9 F500
M03 S255
G90 G1 X65.5 Y32.9 F40
M05
G90 G1 X65.3 Y32.7 F500
M03 S255
G90 G1 X67.0 Y32.7 F40
M05
G90 G1 X66.8 Y32.5 F500
M03 S255
G90 G1 X65.1 Y32.5 F40
M05
G90 G1 X65.0 Y32.3 F500
M03 S255
G90 G1 X66.6 Y32.3 F40
M05
G90 G1 X66.4 Y32.1 F500
M03 S255
G90 G1 X64.9 Y32.1 F40
M05
G90 G1 X64.8 Y31.9 F500
M03 S255
G90 G1 X66.3 Y31.9 F40
M05
G90 G1 X66.1 Y31.7 F500
M03 S255
G90 G1 X64.7 Y31.7 F40
M05
G90 G1 X64.6 Y31.5 F500
M03 S255
G90 G1 X66.0 Y31.5 F40
M05
G90 G1 X65.9 Y31.3 F500
M03 S255
G90 G1 X64.5 Y31.3 F40
M05
G90 G1 X64.4 Y31.1 F500
M03 S255
G90 G1 X65.8 Y31.1 F40
M05
G90 G1 X65.7 Y30.9 F500
M03 S255
G90 G1 X64.3 Y30.9 F40
M05
G90 G1 X64.3 Y30.7 F500
M03 S255
G90 G1 X65.6 Y30.7 F40
M05
G90 G1 X65.5 Y30.5 F500
M03 S255
G90 G1 X64.2 Y30.5 F40
M05
G90 G1 X64.1 Y30.3 F500
M03 S255
G90 G1 X65.4 Y30.3 F40
M05
G90 G1 X65.4 Y30.1 F500
M03 S255
G90 G1 X64.1 Y30.1 F40
M05
G90 G1 X64.0 Y29.9 F500
M03 S255
G90 G1 X65.3 Y29.9 F40
M05
G90 G1 X65.2 Y29.7 F500
M03 S255
G90 G1 X64.0 Y29.7 F40
M05
G90 G1 X63.9 Y29.5 F500
M03 S255
G90 G1 X65.2 Y29.5 F40
M05
G90 G1 X65.1 Y29.3 F500
M03 S255
G90 G1 X63.9 Y29.3 F40
M05
G90 G1 X63.8 Y29.1 F500
M03 S255
G90 G1 X65.1 Y29.1 F40
M05
G90 G1 X65.1 Y28.9 F500
M03 S255
G90 G1 X63.8 Y28.9 F40
M05
G90 G1 X63.7 Y28.7 F500
M03 S255
G90 G1 X65.0 Y28.7 F40
M05
G90 G1 X64.9 Y28.5 F500
M03 S255
G90 G1 X63.7 Y28.5 F40
M05
G90 G1 X63.6 Y28.3 F500
M03 S255
G90 G1 X64.9 Y28.3 F40
M05
G90 G1 X64.9 Y28.1 F500
M03 S255
G90 G1 X63.6 Y28.1 F40
M05
G90 G1 X63.6 Y27.9 F500
M03 S255
G90 G1 X64.8 Y27.9 F40
M05
G90 G1 X64.8 Y27.7 F500
M03 S255
G90 G1 X63.5 Y27.7 F40
M05
G90 G1 X63.5 Y27.5 F500
M03 S255
G90 G1 X64.8 Y27.5 F40
M05
G90 G1 X64.7 Y27.3 F500
M03 S255
G90 G1 X63.5 Y27.3 F40
M05
G90 G1 X63.5 Y27.1 F500
M03 S255
G90 G1 X64.7 Y27.1 F40
M05
G90 G1 X64.7 Y26.9 F500
M03 S255
G90 G1 X63.4 Y26.9 F40
M05
G90 G1 X63.4 Y26.7 F500
M03 S255
G90 G1 X64.7 Y26.7 F40
M05
G90 G1 X64.7 Y26.5 F500
M03 S255
G90 G1 X63.4 Y26.5 F40
M05
G90 G1 X63.4 Y26.3 F500
M03 S255
G90 G1 X64.6 Y26.3 F40
M05
G90 G1 X64.6 Y26.1 F500
M03 S255
G90 G1 X63.4 Y26.1 F40
M05
G90 G1 X63.4 Y25.9 F500
M03 S255
G90 G1 X64.6 Y25.9 F40
M05
G90 G1 X64.6 Y25.7 F500
M03 S255
G90 G1 X63.3 Y25.7 F40
M05
G90 G1 X63.3 Y25.5 F500
M03 S255
G90 G1 X64.6 Y25.5 F40
M05
G90 G1 X64.6 Y25.3 F500
M03 S255
G90 G1 X63.3 Y25.3 F40
M05
G90 G1 X63.3 Y25.1 F500
M03 S255
G90 G1 X64.5 Y25.1 F40
M05
G90 G1 X64.5 Y24.9 F500
M03 S255
G90 G1 X63.3 Y24.9 F40
M05
G90 G1 X63.3 Y24.7 F500
M03 S255
G90 G1 X64.5 Y24.7 F40
M05
G90 G1 X64.5 Y24.5 F500
M03 S255
G90 G1 X63.2 Y24.5 F40
M05
G90 G1 X63.2 Y24.3 F500
M03 S255
G90 G1 X64.5 Y24.3 F40
M05
G90 G1 X64.5 Y24.1 F500
M03 S255
G90 G1 X63.2 Y24.1 F40
M05
G90 G1 X63.2 Y23.9 F500
M03 S255
G90 G1 X64.4 Y23.9 F40
M05
G90 G1 X64.4 Y23.7 F500
M03 S255
G90 G1 X63.2 Y23.7 F40
M05
G90 G1 X63.2 Y23.5 F500
M03 S255
G90 G1 X64.4 Y23.5 F40
M05
G90 G1 X64.4 Y23.3 F500
M03 S255
G90 G1 X63.1 Y23.3 F40
M05
G90 G1 X63.1 Y23.1 F500
M03 S255
G90 G1 X64.4 Y23.1 F40
M05
G90 G1 X64.4 Y22.9 F500
M03 S255
G90 G1 X63.1 Y22.9 F40
M05
G90 G1 X63.1 Y22.7 F500
M03 S255
G90 G1 X64.4 Y22.7 F40
M05
G90 G1 X64.3 Y22.5 F500
M03 S255
G90 G1 X63.1 Y22.5 F40
M05
G90 G1 X63.1 Y22.3 F500
M03 S255
G90 G1 X64.3 Y22.3 F40
M05
G90 G1 X64.3 Y22.1 F500
M03 S255
G90 G1 X63.1 Y22.1 F40
M05
G90 G1 X63.1 Y21.9 F500
M03 S255
G90 G1 X64.3 Y21.9 F40
M05
G90 G1 X64.3 Y21.7 F500
M03 S255
G90 G1 X63.0 Y21.7 F40
M05
G90 G1 X63.0 Y21.5 F500
M03 S255
G90 G1 X64.3 Y21.5 F40
M05
G90 G1 X64.2 Y21.3 F500
M03 S255
G90 G1 X63.0 Y21.3 F40
M05
G90 G1 X63.0 Y21.1 F500
M03 S255
G90 G1 X64.2 Y21.1 F40
M05
G90 G1 X64.2 Y20.9 F500
M03 S255
G90 G1 X62.9 Y20.9 F40
M05
G90 G1 X62.9 Y20.7 F500
M03 S255
G90 G1 X64.2 Y20.7 F40
M05
G90 G1 X64.1 Y20.5 F500
M03 S255
G90 G1 X62.9 Y20.5 F40
M05
G90 G1 X62.8 Y20.3 F500
M03 S255
G90 G1 X64.1 Y20.3 F40
M05
G90 G1 X64.1 Y20.1 F500
M03 S255
G90 G1 X62.8 Y20.1 F40
M05
G90 G1 X62.7 Y19.9 F500
M03 S255
G90 G1 X64.0 Y19.9 F40
M05
G90 G1 X64.0 Y19.7 F500
M03 S255
G90 G1 X62.6 Y19.7 F40
M05
G90 G1 X62.6 Y19.5 F500
M03 S255
G90 G1 X63.9 Y19.5 F40
M05
G90 G1 X63.8 Y19.3 F500
M03 S255
G90 G1 X62.5 Y19.3 F40
M05
G90 G1 X62.5 Y19.1 F500
M03 S255
G90 G1 X63.8 Y19.1 F40
M05
G90 G1 X63.7 Y18.9 F500
M03 S255
G90 G1 X62.4 Y18.9 F40
M05
G90 G1 X62.4 Y18.7 F500
M03 S255
G90 G1 X63.7 Y18.7 F40
M05
G90 G1 X63.6 Y18.5 F500
M03 S255
G90 G1 X62.3 Y18.5 F40
M05
G90 G1 X62.3 Y18.3 F500
M03 S255
G90 G1 X63.6 Y18.3 F40
M05
G90 G1 X63.5 Y18.1 F500
M03 S255
G90 G1 X62.2 Y18.1 F40
M05
G90 G1 X62.1 Y17.9 F500
M03 S255
G90 G1 X63.5 Y17.9 F40
M05
G90 G1 X63.4 Y17.7 F500
M03 S255
G90 G1 X62.1 Y17.7 F40
M05
G90 G1 X62.0 Y17.5 F500
M03 S255
G90 G1 X63.3 Y17.5 F40
M05
G90 G1 X63.3 Y17.3 F500
M03 S255
G90 G1 X62.0 Y17.3 F40
M05
G90 G1 X61.9 Y17.1 F500
M03 S255
G90 G1 X63.2 Y17.1 F40
M05
G90 G1 X63.2 Y16.9 F500
M03 S255
G90 G1 X61.9 Y16.9 F40
M05
G90 G1 X61.7 Y16.7 F500
M03 S255
G90 G1 X63.1 Y16.7 F40
M05
G90 G1 X63.1 Y16.5 F500
M03 S255
G90 G1 X61.4 Y16.5 F40
M05
G90 G1 X61.1 Y16.3 F500
M03 S255
G90 G1 X63.0 Y16.3 F40
M05
G90 G1 X63.0 Y16.1 F500
M03 S255
G90 G1 X60.8 Y16.1 F40
M05
G90 G1 X60.5 Y15.9 F500
M03 S255
G90 G1 X62.9 Y15.9 F40
M05
G90 G1 X62.8 Y15.7 F500
M03 S255
G90 G1 X60.2 Y15.7 F40
M05
G90 G1 X59.8 Y15.5 F500
M03 S255
G90 G1 X62.8 Y15.5 F40
M05
G90 G1 X62.7 Y15.3 F500
M03 S255
G90 G1 X59.4 Y15.3 F40
M05
G90 G1 X59.1 Y15.1 F500
M03 S255
G90 G1 X62.7 Y15.1 F40
M05
G90 G1 X62.6 Y14.9 F500
M03 S255
G90 G1 X58.7 Y14.9 F40
M05
G90 G1 X58.3 Y14.7 F500
M03 S255
G90 G1 X62.6 Y14.7 F40
M05
G90 G1 X62.5 Y14.5 F500
M03 S255
G90 G1 X57.9 Y14.5 F40
M05
G90 G1 X57.4 Y14.3 F500
M03 S255
G90 G1 X62.5 Y14.3 F40
M05
G90 G1 X62.4 Y14.1 F500
M03 S255
G90 G1 X57.0 Y14.1 F40
M05
G90 G1 X56.4 Y13.9 F500
M03 S255
G90 G1 X62.3 Y13.9 F40
M05
G90 G1 X62.3 Y13.7 F500
M03 S255
G90 G1 X55.8 Y13.7 F40
M05
G90 G1 X55.3 Y13.5 F500
M03 S255
G90 G1 X62.2 Y13.5 F40
M05
G90 G1 X62.2 Y13.3 F500
M03 S255
G90 G1 X54.5 Y13.3 F40
M05
G90 G1 X53.8 Y13.1 F500
M03 S255
G90 G1 X62.1 Y13.1 F40
M05
G90 G1 X62.1 Y12.9 F500
M03 S255
G90 G1 X52.8 Y12.9 F40
M05
G90 G1 X50.9 Y12.7 F500
M03 S255
G90 G1 X62.1 Y12.7 F40
M05
G90 G1 X68.7 Y4.3 F500
M03 S255
G90 G1 X73.2 Y4.3 F40
M05
G90 G1 X73.4 Y4.5 F500
M03 S255
G90 G1 X70.0 Y4.5 F40
M05
G90 G1 X70.7 Y4.7 F500
M03 S255
G90 G1 X73.8 Y4.7 F40
M05
G90 G1 X74.1 Y4.9 F500
M03 S255
G90 G1 X71.1 Y4.9 F40
M05
G90 G1 X71.7 Y5.1 F500
M03 S255
G90 G1 X74.4 Y5.1 F40
M05
G90 G1 X74.7 Y5.3 F500
M03 S255
G90 G1 X72.1 Y5.3 F40
M05
G90 G1 X72.4 Y5.5 F500
M03 S255
G90 G1 X74.9 Y5.5 F40
M05
G90 G1 X75.2 Y5.7 F500
M03 S255
G90 G1 X72.8 Y5.7 F40
M05
G90 G1 X73.1 Y5.9 F500
M03 S255
G90 G1 X75.5 Y5.9 F40
M05
G90 G1 X75.7 Y6.1 F500
M03 S255
G90 G1 X73.4 Y6.1 F40
M05
G90 G1 X73.7 Y6.3 F500
M03 S255
G90 G1 X75.9 Y6.3 F40
M05
G90 G1 X75.9 Y6.1 F500
M03 S255
G90 G1 X75.8 Y6.1 F40
M05
G90 G1 X76.2 Y6.5 F500
M03 S255
G90 G1 X74.0 Y6.5 F40
M05
G90 G1 X74.3 Y6.7 F500
M03 S255
G90 G1 X76.3 Y6.7 F40
M05
G90 G1 X76.6 Y6.9 F500
M03 S255
G90 G1 X74.5 Y6.9 F40
M05
G90 G1 X74.8 Y7.1 F500
M03 S255
G90 G1 X76.7 Y7.1 F40
M05
G90 G1 X76.9 Y7.3 F500
M03 S255
G90 G1 X75.0 Y7.3 F40
M05
G90 G1 X75.2 Y7.5 F500
M03 S255
G90 G1 X77.2 Y7.5 F40
M05
G90 G1 X77.3 Y7.7 F500
M03 S255
G90 G1 X75.4 Y7.7 F40
M05
G90 G1 X75.6 Y7.9 F500
M03 S255
G90 G1 X77.5 Y7.9 F40
M05
G90 G1 X77.6 Y8.1 F500
M03 S255
G90 G1 X75.8 Y8.1 F40
M05
G90 G1 X76.0 Y8.3 F500
M03 S255
G90 G1 X77.8 Y8.3 F40
M05
G90 G1 X78.0 Y8.5 F500
M03 S255
G90 G1 X76.2 Y8.5 F40
M05
G90 G1 X76.4 Y8.7 F500
M03 S255
G90 G1 X78.1 Y8.7 F40
M05
G90 G1 X78.4 Y8.9 F500
M03 S255
G90 G1 X76.5 Y8.9 F40
M05
G90 G1 X76.7 Y9.1 F500
M03 S255
G90 G1 X78.6 Y9.1 F40
M05
G90 G1 X78.8 Y9.3 F500
M03 S255
G90 G1 X76.9 Y9.3 F40
M05
G90 G1 X77.1 Y9.5 F500
M03 S255
G90 G1 X79.1 Y9.5 F40
M05
G90 G1 X79.3 Y9.7 F500
M03 S255
G90 G1 X77.2 Y9.7 F40
M05
G90 G1 X77.5 Y9.9 F500
M03 S255
G90 G1 X79.6 Y9.9 F40
M05
G90 G1 X79.8 Y10.1 F500
M03 S255
G90 G1 X77.6 Y10.1 F40
M05
G90 G1 X77.9 Y10.3 F500
M03 S255
G90 G1 X80.1 Y10.3 F40
M05
G90 G1 X80.4 Y10.5 F500
M03 S255
G90 G1 X78.1 Y10.5 F40
M05
G90 G1 X78.3 Y10.7 F500
M03 S255
G90 G1 X80.6 Y10.7 F40
M05
G90 G1 X81.0 Y10.9 F500
M03 S255
G90 G1 X78.6 Y10.9 F40
M05
G90 G1 X78.8 Y11.1 F500
M03 S255
G90 G1 X81.4 Y11.1 F40
M05
G90 G1 X81.7 Y11.3 F500
M03 S255
G90 G1 X79.1 Y11.3 F40
M05
G90 G1 X79.4 Y11.5 F500
M03 S255
G90 G1 X82.1 Y11.5 F40
M05
G90 G1 X82.5 Y11.7 F500
M03 S255
G90 G1 X79.7 Y11.7 F40
M05
G90 G1 X80.0 Y11.9 F500
M03 S255
G90 G1 X82.8 Y11.9 F40
M05
G90 G1 X83.3 Y12.1 F500
M03 S255
G90 G1 X80.3 Y12.1 F40
M05
G90 G1 X80.7 Y12.3 F500
M03 S255
G90 G1 X83.6 Y12.3 F40
M05
G90 G1 X84.1 Y12.5 F500
M03 S255
G90 G1 X81.1 Y12.5 F40
M05
G90 G1 X81.4 Y12.7 F500
M03 S255
G90 G1 X84.6 Y12.7 F40
M05
G90 G1 X84.8 Y12.9 F500
M03 S255
G90 G1 X81.8 Y12.9 F40
M05
G90 G1 X82.2 Y13.1 F500
M03 S255
G90 G1 X85.3 Y13.1 F40
M05
G90 G1 X85.6 Y13.3 F500
M03 S255
G90 G1 X82.5 Y13.3 F40
M05
G90 G1 X83.0 Y13.5 F500
M03 S255
G90 G1 X86.0 Y13.5 F40
M05
G90 G1 X86.5 Y13.7 F500
M03 S255
G90 G1 X83.3 Y13.7 F40
M05
G90 G1 X83.8 Y13.9 F500
M03 S255
G90 G1 X86.7 Y13.9 F40
M05
G90 G1 X87.1 Y14.1 F500
M03 S255
G90 G1 X84.2 Y14.1 F40
M05
G90 G1 X84.6 Y14.3 F500
M03 S255
G90 G1 X87.5 Y14.3 F40
M05
G90 G1 X87.7 Y14.5 F500
M03 S255
G90 G1 X85.0 Y14.5 F40
M05
G90 G1 X85.4 Y14.7 F500
M03 S255
G90 G1 X88.0 Y14.7 F40
M05
G90 G1 X88.2 Y14.9 F500
M03 S255
G90 G1 X85.8 Y14.9 F40
M05
G90 G1 X86.2 Y15.1 F500
M03 S255
G90 G1 X88.5 Y15.1 F40
M05
G90 G1 X88.7 Y15.3 F500
M03 S255
G90 G1 X86.4 Y15.3 F40
M05
G90 G1 X86.8 Y15.5 F500
M03 S255
G90 G1 X88.8 Y15.5 F40
M05
G90 G1 X89.0 Y15.7 F500
M03 S255
G90 G1 X87.1 Y15.7 F40
M05
G90 G1 X87.3 Y15.9 F500
M03 S255
G90 G1 X89.2 Y15.9 F40
M05
G90 G1 X89.3 Y16.1 F500
M03 S255
G90 G1 X87.6 Y16.1 F40
M05
G90 G1 X87.7 Y16.3 F500
M03 S255
G90 G1 X89.4 Y16.3 F40
M05
G90 G1 X89.4 Y16.5 F500
M03 S255
G90 G1 X87.9 Y16.5 F40
M05
G90 G1 X88.0 Y16.7 F500
M03 S255
G90 G1 X89.5 Y16.7 F40
M05
G90 G1 X89.6 Y16.9 F500
M03 S255
G90 G1 X88.1 Y16.9 F40
M05
G90 G1 X88.2 Y17.1 F500
M03 S255
G90 G1 X89.7 Y17.1 F40
M05
G90 G1 X89.7 Y17.3 F500
M03 S255
G90 G1 X88.3 Y17.3 F40
M05
G90 G1 X88.3 Y17.5 F500
M03 S255
G90 G1 X89.7 Y17.5 F40
M05
G90 G1 X89.7 Y17.7 F500
M03 S255
G90 G1 X88.3 Y17.7 F40
M05
G90 G1 X88.3 Y17.9 F500
M03 S255
G90 G1 X89.7 Y17.9 F40
M05
G90 G1 X89.7 Y18.1 F500
M03 S255
G90 G1 X88.3 Y18.1 F40
M05
G90 G1 X88.3 Y18.3 F500
M03 S255
G90 G1 X89.7 Y18.3 F40
M05
G90 G1 X89.7 Y18.5 F500
M03 S255
G90 G1 X88.2 Y18.5 F40
M05
G90 G1 X88.1 Y18.7 F500
M03 S255
G90 G1 X89.5 Y18.7 F40
M05
G90 G1 X89.5 Y18.9 F500
M03 S255
G90 G1 X88.0 Y18.9 F40
M05
G90 G1 X88.0 Y19.1 F500
M03 S255
G90 G1 X89.4 Y19.1 F40
M05
G90 G1 X89.4 Y19.3 F500
M03 S255
G90 G1 X87.9 Y19.3 F40
M05
G90 G1 X87.8 Y19.5 F500
M03 S255
G90 G1 X89.3 Y19.5 F40
M05
G90 G1 X89.2 Y19.7 F500
M03 S255
G90 G1 X87.6 Y19.7 F40
M05
G90 G1 X87.5 Y19.9 F500
M03 S255
G90 G1 X89.2 Y19.9 F40
M05
G90 G1 X89.0 Y20.1 F500
M03 S255
G90 G1 X87.4 Y20.1 F40
M05
G90 G1 X87.3 Y20.3 F500
M03 S255
G90 G1 X88.9 Y20.3 F40
M05
G90 G1 X88.8 Y20.5 F500
M03 S255
G90 G1 X87.1 Y20.5 F40
M05
G90 G1 X87.0 Y20.7 F500
M03 S255
G90 G1 X88.7 Y20.7 F40
M05
G90 G1 X88.5 Y20.9 F500
M03 S255
G90 G1 X86.9 Y20.9 F40
M05
G90 G1 X86.7 Y21.1 F500
M03 S255
G90 G1 X88.4 Y21.1 F40
M05
G90 G1 X88.3 Y21.3 F500
M03 S255
G90 G1 X86.5 Y21.3 F40
M05
G90 G1 X86.4 Y21.5 F500
M03 S255
G90 G1 X88.1 Y21.5 F40
M05
G90 G1 X87.9 Y21.7 F500
M03 S255
G90 G1 X86.2 Y21.7 F40
M05
G90 G1 X86.0 Y21.9 F500
M03 S255
G90 G1 X87.8 Y21.9 F40
M05
G90 G1 X87.7 Y22.1 F500
M03 S255
G90 G1 X85.9 Y22.1 F40
M05
G90 G1 X85.7 Y22.3 F500
M03 S255
G90 G1 X87.5 Y22.3 F40
M05
G90 G1 X87.5 Y22.5 F500
M03 S255
G90 G1 X87.4 Y22.5 F40
M05
G90 G1 X87.3 Y22.5 F500
M03 S255
G90 G1 X85.5 Y22.5 F40
M05
G90 G1 X85.4 Y22.7 F500
M03 S255
G90 G1 X87.1 Y22.7 F40
M05
G90 G1 X86.9 Y22.9 F500
M03 S255
G90 G1 X85.3 Y22.9 F40
M05
G90 G1 X85.2 Y23.1 F500
M03 S255
G90 G1 X86.8 Y23.1 F40
M05
G90 G1 X86.6 Y23.3 F500
M03 S255
G90 G1 X85.1 Y23.3 F40
M05
G90 G1 X85.0 Y23.5 F500
M03 S255
G90 G1 X86.6 Y23.5 F40
M05
G90 G1 X86.4 Y23.7 F500
M03 S255
G90 G1 X84.9 Y23.7 F40
M05
G90 G1 X84.8 Y23.9 F500
M03 S255
G90 G1 X86.3 Y23.9 F40
M05
G90 G1 X86.2 Y24.1 F500
M03 S255
G90 G1 X84.8 Y24.1 F40
M05
G90 G1 X84.7 Y24.3 F500
M03 S255
G90 G1 X86.2 Y24.3 F40
M05
G90 G1 X86.1 Y24.5 F500
M03 S255
G90 G1 X84.6 Y24.5 F40
M05
G90 G1 X84.6 Y24.7 F500
M03 S255
G90 G1 X86.1 Y24.7 F40
M05
G90 G1 X85.9 Y24.9 F500
M03 S255
G90 G1 X84.5 Y24.9 F40
M05
G90 G1 X84.5 Y25.1 F500
M03 S255
G90 G1 X85.9 Y25.1 F40
M05
G90 G1 X85.8 Y25.3 F500
M03 S255
G90 G1 X84.4 Y25.3 F40
M05
G90 G1 X84.4 Y25.5 F500
M03 S255
G90 G1 X85.8 Y25.5 F40
M05
G90 G1 X85.7 Y25.7 F500
M03 S255
G90 G1 X84.3 Y25.7 F40
M05
G90 G1 X84.3 Y25.9 F500
M03 S255
G90 G1 X85.7 Y25.9 F40
M05
G90 G1 X85.7 Y26.1 F500
M03 S255
G90 G1 X84.2 Y26.1 F40
M05
G90 G1 X84.2 Y26.3 F500
M03 S255
G90 G1 X85.6 Y26.3 F40
M05
G90 G1 X85.6 Y26.5 F500
M03 S255
G90 G1 X84.2 Y26.5 F40
M05
G90 G1 X84.1 Y26.7 F500
M03 S255
G90 G1 X85.5 Y26.7 F40
M05
G90 G1 X85.4 Y26.9 F500
M03 S255
G90 G1 X84.0 Y26.9 F40
M05
G90 G1 X84.0 Y27.1 F500
M03 S255
G90 G1 X85.4 Y27.1 F40
M05
G90 G1 X85.3 Y27.3 F500
M03 S255
G90 G1 X83.9 Y27.3 F40
M05
G90 G1 X83.9 Y27.5 F500
M03 S255
G90 G1 X85.3 Y27.5 F40
M05
G90 G1 X85.2 Y27.7 F500
M03 S255
G90 G1 X83.8 Y27.7 F40
M05
G90 G1 X83.8 Y27.9 F500
M03 S255
G90 G1 X85.2 Y27.9 F40
M05
G90 G1 X85.1 Y28.1 F500
M03 S255
G90 G1 X83.7 Y28.1 F40
M05
G90 G1 X83.6 Y28.3 F500
M03 S255
G90 G1 X85.1 Y28.3 F40
M05
G90 G1 X85.0 Y28.5 F500
M03 S255
G90 G1 X83.5 Y28.5 F40
M05
G90 G1 X83.4 Y28.7 F500
M03 S255
G90 G1 X85.0 Y28.7 F40
M05
G90 G1 X84.8 Y28.9 F500
M03 S255
G90 G1 X83.3 Y28.9 F40
M05
G90 G1 X83.2 Y29.1 F500
M03 S255
G90 G1 X84.8 Y29.1 F40
M05
G90 G1 X84.7 Y29.3 F500
M03 S255
G90 G1 X83.1 Y29.3 F40
M05
G90 G1 X82.9 Y29.5 F500
M03 S255
G90 G1 X84.6 Y29.5 F40
M05
G90 G1 X84.5 Y29.7 F500
M03 S255
G90 G1 X82.8 Y29.7 F40
M05
G90 G1 X82.6 Y29.9 F500
M03 S255
G90 G1 X84.3 Y29.9 F40
M05
G90 G1 X84.2 Y30.1 F500
M03 S255
G90 G1 X82.3 Y30.1 F40
M05
G90 G1 X82.0 Y30.3 F500
M03 S255
G90 G1 X84.1 Y30.3 F40
M05
G90 G1 X83.9 Y30.5 F500
M03 S255
G90 G1 X81.6 Y30.5 F40
M05
G90 G1 X81.0 Y30.7 F500
M03 S255
G90 G1 X83.7 Y30.7 F40
M05
G90 G1 X83.4 Y30.9 F500
M03 S255
G90 G1 X68.3 Y30.9 F40
M05
G90 G1 X68.2 Y31.1 F500
M03 S255
G90 G1 X83.3 Y31.1 F40
M05
G90 G1 X82.9 Y31.3 F500
M03 S255
G90 G1 X68.2 Y31.3 F40
M05
G90 G1 X68.1 Y31.5 F500
M03 S255
G90 G1 X82.6 Y31.5 F40
M05
G90 G1 X82.3 Y31.7 F500
M03 S255
G90 G1 X68.1 Y31.7 F40
M05
G90 G1 X68.4 Y30.7 F500
M03 S255
G90 G1 X78.3 Y30.7 F40
M05
G90 G1 X78.2 Y30.5 F500
M03 S255
G90 G1 X68.5 Y30.5 F40
M05
G90 G1 X68.6 Y30.3 F500
M03 S255
G90 G1 X78.0 Y30.3 F40
M05
G90 G1 X77.8 Y30.1 F500
M03 S255
G90 G1 X68.7 Y30.1 F40
M05
G90 G1 X68.8 Y29.9 F500
M03 S255
G90 G1 X77.5 Y29.9 F40
M05
G90 G1 X77.2 Y29.7 F500
M03 S255
G90 G1 X68.9 Y29.7 F40
M05
G90 G1 X69.0 Y29.5 F500
M03 S255
G90 G1 X77.0 Y29.5 F40
M05
G90 G1 X76.7 Y29.3 F500
M03 S255
G90 G1 X69.2 Y29.3 F40
M05
G90 G1 X69.3 Y29.1 F500
M03 S255
G90 G1 X76.4 Y29.1 F40
M05
G90 G1 X76.1 Y28.9 F500
M03 S255
G90 G1 X69.5 Y28.9 F40
M05
G90 G1 X69.7 Y28.7 F500
M03 S255
G90 G1 X75.7 Y28.7 F40
M05
G90 G1 X75.4 Y28.5 F500
M03 S255
G90 G1 X69.9 Y28.5 F40
M05
G90 G1 X70.2 Y28.3 F500
M03 S255
G90 G1 X74.9 Y28.3 F40
M05
G90 G1 X74.4 Y28.1 F500
M03 S255
G90 G1 X70.5 Y28.1 F40
M05
G90 G1 X70.9 Y27.9 F500
M03 S255
G90 G1 X73.8 Y27.9 F40
M05
G90 G1 X72.8 Y27.7 F500
M03 S255
G90 G1 X71.8 Y27.7 F40
M05
G90 G1 X50.4 Y9.1 F500
M03 S255
G90 G1 X40.6 Y9.1 F40
M05
G90 G1 X40.6 Y8.9 F500
M03 S255
G90 G1 X48.0 Y8.9 F40
M05
G90 G1 X46.4 Y8.7 F500
M03 S255
G90 G1 X40.5 Y8.7 F40
M05
G90 G1 X40.4 Y8.5 F500
M03 S255
G90 G1 X45.7 Y8.5 F40
M05
G90 G1 X44.4 Y8.3 F500
M03 S255
G90 G1 X40.3 Y8.3 F40
M05
G90 G1 X40.2 Y8.1 F500
M03 S255
G90 G1 X43.0 Y8.1 F40
M05
G90 G1 X41.6 Y7.9 F500
M03 S255
G90 G1 X40.1 Y7.9 F40
M05
G90 G1 X40.0 Y7.7 F500
M03 S255
G90 G1 X41.5 Y7.7 F40
M05
G90 G1 X41.4 Y7.5 F500
M03 S255
G90 G1 X39.8 Y7.5 F40
M05
G90 G1 X39.6 Y7.3 F500
M03 S255
G90 G1 X41.3 Y7.3 F40
M05
G90 G1 X41.1 Y7.1 F500
M03 S255
G90 G1 X39.5 Y7.1 F40
M05
G90 G1 X39.3 Y6.9 F500
M03 S255
G90 G1 X41.0 Y6.9 F40
M05
G90 G1 X40.9 Y6.7 F500
M03 S255
G90 G1 X39.0 Y6.7 F40
M05
G90 G1 X38.7 Y6.5 F500
M03 S255
G90 G1 X40.7 Y6.5 F40
M05
G90 G1 X40.5 Y6.3 F500
M03 S255
G90 G1 X38.4 Y6.3 F40
M05
G90 G1 X38.1 Y6.1 F500
M03 S255
G90 G1 X40.3 Y6.1 F40
M05
G90 G1 X40.1 Y5.9 F500
M03 S255
G90 G1 X37.6 Y5.9 F40
M05
G90 G1 X37.1 Y5.7 F500
M03 S255
G90 G1 X39.9 Y5.7 F40
M05
G90 G1 X39.6 Y5.5 F500
M03 S255
G90 G1 X36.3 Y5.5 F40
M05
G90 G1 X36.2 Y4.1 F500
M03 S255
G90 G1 X32.4 Y4.1 F40
M05
G90 G1 X31.2 Y4.3 F500
M03 S255
G90 G1 X37.3 Y4.3 F40
M05
G90 G1 X37.7 Y4.5 F500
M03 S255
G90 G1 X30.6 Y4.5 F40
M05
G90 G1 X29.8 Y4.7 F500
M03 S255
G90 G1 X38.3 Y4.7 F40
M05
G90 G1 X38.8 Y4.9 F500
M03 S255
G90 G1 X29.1 Y4.9 F40
M05
G90 G1 X28.7 Y5.1 F500
M03 S255
G90 G1 X39.0 Y5.1 F40
M05
G90 G1 X39.4 Y5.3 F500
M03 S255
G90 G1 X28.1 Y5.3 F40
M05
G90 G1 X27.8 Y5.5 F500
M03 S255
G90 G1 X32.3 Y5.5 F40
M05
G90 G1 X31.3 Y5.7 F500
M03 S255
G90 G1 X27.3 Y5.7 F40
M05
G90 G1 X26.7 Y5.9 F500
M03 S255
G90 G1 X30.6 Y5.9 F40
M05
G90 G1 X29.9 Y6.1 F500
M03 S255
G90 G1 X26.5 Y6.1 F40
M05
G90 G1 X26.0 Y6.3 F500
M03 S255
G90 G1 X29.3 Y6.3 F40
M05
G90 G1 X28.8 Y6.5 F500
M03 S255
G90 G1 X25.7 Y6.5 F40
M05
G90 G1 X25.1 Y6.7 F500
M03 S255
G90 G1 X28.3 Y6.7 F40
M05
G90 G1 X27.9 Y6.9 F500
M03 S255
G90 G1 X24.5 Y6.9 F40
M05
G90 G1 X24.0 Y7.1 F500
M03 S255
G90 G1 X27.5 Y7.1 F40
M05
G90 G1 X27.0 Y7.3 F500
M03 S255
G90 G1 X23.1 Y7.3 F40
M05
G90 G1 X21.8 Y7.5 F500
M03 S255
G90 G1 X26.7 Y7.5 F40
M05
G90 G1 X26.2 Y7.7 F500
M03 S255
G90 G1 X21.1 Y7.7 F40
M05
G90 G1 X21.0 Y9.1 F500
M03 S255
G90 G1 X13.4 Y9.1 F40
M05
G90 G1 X13.1 Y9.3 F500
M03 S255
G90 G1 X19.2 Y9.3 F40
M05
G90 G1 X19.2 Y7.9 F500
M03 S255
G90 G1 X25.8 Y7.9 F40
M05
G90 G1 X25.3 Y8.1 F500
M03 S255
G90 G1 X18.0 Y8.1 F40
M05
G90 G1 X17.7 Y9.5 F500
M03 S255
G90 G1 X12.7 Y9.5 F40
M05
G90 G1 X12.5 Y9.7 F500
M03 S255
G90 G1 X16.1 Y9.7 F40
M05
G90 G1 X15.1 Y9.9 F500
M03 S255
G90 G1 X12.2 Y9.9 F40
M05
G90 G1 X12.1 Y10.1 F500
M03 S255
G90 G1 X14.5 Y10.1 F40
M05
G90 G1 X14.0 Y10.3 F500
M03 S255
G90 G1 X11.9 Y10.3 F40
M05
G90 G1 X11.7 Y10.5 F500
M03 S255
G90 G1 X13.7 Y10.5 F40
M05
G90 G1 X13.4 Y10.7 F500
M03 S255
G90 G1 X11.7 Y10.7 F40
M05
G90 G1 X11.6 Y10.9 F500
M03 S255
G90 G1 X13.2 Y10.9 F40
M05
G90 G1 X13.0 Y11.1 F500
M03 S255
G90 G1 X11.5 Y11.1 F40
M05
G90 G1 X11.3 Y11.3 F500
M03 S255
G90 G1 X12.9 Y11.3 F40
M05
G90 G1 X12.7 Y11.5 F500
M03 S255
G90 G1 X11.3 Y11.5 F40
M05
G90 G1 X11.2 Y11.7 F500
M03 S255
G90 G1 X12.7 Y11.7 F40
M05
G90 G1 X12.6 Y11.9 F500
M03 S255
G90 G1 X11.2 Y11.9 F40
M05
G90 G1 X11.2 Y12.1 F500
M03 S255
G90 G1 X12.6 Y12.1 F40
M05
G90 G1 X12.6 Y12.3 F500
M03 S255
G90 G1 X11.2 Y12.3 F40
M05
G90 G1 X11.2 Y12.5 F500
M03 S255
G90 G1 X12.5 Y12.5 F40
M05
G90 G1 X12.5 Y12.7 F500
M03 S255
G90 G1 X11.2 Y12.7 F40
M05
G90 G1 X11.2 Y12.9 F500
M03 S255
G90 G1 X12.5 Y12.9 F40
M05
G90 G1 X12.5 Y13.1 F500
M03 S255
G90 G1 X11.2 Y13.1 F40
M05
G90 G1 X11.2 Y13.3 F500
M03 S255
G90 G1 X12.5 Y13.3 F40
M05
G90 G1 X12.6 Y13.5 F500
M03 S255
G90 G1 X11.2 Y13.5 F40
M05
G90 G1 X11.2 Y13.7 F500
M03 S255
G90 G1 X12.6 Y13.7 F40
M05
G90 G1 X12.6 Y13.9 F500
M03 S255
G90 G1 X11.2 Y13.9 F40
M05
G90 G1 X11.2 Y14.1 F500
M03 S255
G90 G1 X12.6 Y14.1 F40
M05
G90 G1 X12.7 Y14.3 F500
M03 S255
G90 G1 X11.3 Y14.3 F40
M05
G90 G1 X11.3 Y14.5 F500
M03 S255
G90 G1 X12.7 Y14.5 F40
M05
G90 G1 X12.8 Y14.7 F500
M03 S255
G90 G1 X11.3 Y14.7 F40
M05
G90 G1 X11.5 Y14.9 F500
M03 S255
G90 G1 X12.9 Y14.9 F40
M05
G90 G1 X12.9 Y15.1 F500
M03 S255
G90 G1 X11.5 Y15.1 F40
M05
G90 G1 X11.6 Y15.3 F500
M03 S255
G90 G1 X13.0 Y15.3 F40
M05
G90 G1 X13.0 Y15.5 F500
M03 S255
G90 G1 X11.6 Y15.5 F40
M05
G90 G1 X11.7 Y15.7 F500
M03 S255
G90 G1 X13.1 Y15.7 F40
M05
G90 G1 X13.1 Y15.9 F500
M03 S255
G90 G1 X11.7 Y15.9 F40
M05
G90 G1 X11.8 Y16.1 F500
M03 S255
G90 G1 X13.2 Y16.1 F40
M05
G90 G1 X13.3 Y16.3 F500
M03 S255
G90 G1 X11.8 Y16.3 F40
M05
G90 G1 X11.9 Y16.5 F500
M03 S255
G90 G1 X13.3 Y16.5 F40
M05
G90 G1 X13.4 Y16.7 F500
M03 S255
G90 G1 X11.9 Y16.7 F40
M05
G90 G1 X12.1 Y16.9 F500
M03 S255
G90 G1 X13.5 Y16.9 F40
M05
G90 G1 X13.5 Y17.1 F500
M03 S255
G90 G1 X12.1 Y17.1 F40
M05
G90 G1 X12.1 Y17.3 F500
M03 S255
G90 G1 X13.5 Y17.3 F40
M05
G90 G1 X13.5 Y17.5 F500
M03 S255
G90 G1 X12.1 Y17.5 F40
M05
G90 G1 X12.2 Y17.7 F500
M03 S255
G90 G1 X13.5 Y17.7 F40
M05
G90 G1 X13.5 Y17.9 F500
M03 S255
G90 G1 X12.2 Y17.9 F40
M05
G90 G1 X12.1 Y18.1 F500
M03 S255
G90 G1 X13.5 Y18.1 F40
M05
G90 G1 X13.5 Y18.3 F500
M03 S255
G90 G1 X12.1 Y18.3 F40
M05
G90 G1 X12.1 Y18.5 F500
M03 S255
G90 G1 X13.5 Y18.5 F40
M05
G90 G1 X13.5 Y18.7 F500
M03 S255
G90 G1 X12.1 Y18.7 F40
M05
G90 G1 X12.1 Y18.9 F500
M03 S255
G90 G1 X13.5 Y18.9 F40
M05
G90 G1 X13.5 Y19.1 F500
M03 S255
G90 G1 X12.1 Y19.1 F40
M05
G90 G1 X12.1 Y19.3 F500
M03 S255
G90 G1 X13.4 Y19.3 F40
M05
G90 G1 X13.4 Y19.5 F500
M03 S255
G90 G1 X11.9 Y19.5 F40
M05
G90 G1 X11.9 Y19.7 F500
M03 S255
G90 G1 X13.3 Y19.7 F40
M05
G90 G1 X13.3 Y19.9 F500
M03 S255
G90 G1 X11.9 Y19.9 F40
M05
G90 G1 X11.9 Y20.1 F500
M03 S255
G90 G1 X13.3 Y20.1 F40
M05
G90 G1 X13.2 Y20.3 F500
M03 S255
G90 G1 X11.8 Y20.3 F40
M05
G90 G1 X11.8 Y20.5 F500
M03 S255
G90 G1 X13.2 Y20.5 F40
M05
G90 G1 X13.2 Y20.7 F500
M03 S255
G90 G1 X11.8 Y20.7 F40
M05
G90 G1 X11.8 Y20.9 F500
M03 S255
G90 G1 X13.2 Y20.9 F40
M05
G90 G1 X13.1 Y21.1 F500
M03 S255
G90 G1 X11.8 Y21.1 F40
M05
G90 G1 X11.7 Y21.3 F500
M03 S255
G90 G1 X13.1 Y21.3 F40
M05
G90 G1 X13.1 Y21.5 F500
M03 S255
G90 G1 X11.7 Y21.5 F40
M05
G90 G1 X11.7 Y21.7 F500
M03 S255
G90 G1 X13.1 Y21.7 F40
M05
G90 G1 X13.0 Y21.9 F500
M03 S255
G90 G1 X11.7 Y21.9 F40
M05
G90 G1 X11.7 Y22.1 F500
M03 S255
G90 G1 X13.0 Y22.1 F40
M05
G90 G1 X13.0 Y22.3 F500
M03 S255
G90 G1 X11.6 Y22.3 F40
M05
G90 G1 X11.6 Y22.5 F500
M03 S255
G90 G1 X13.0 Y22.5 F40
M05
G90 G1 X13.0 Y22.7 F500
M03 S255
G90 G1 X11.6 Y22.7 F40
M05
G90 G1 X11.6 Y22.9 F500
M03 S255
G90 G1 X13.0 Y22.9 F40
M05
G90 G1 X13.0 Y23.1 F500
M03 S255
G90 G1 X11.7 Y23.1 F40
M05
G90 G1 X11.7 Y23.3 F500
M03 S255
G90 G1 X13.0 Y23.3 F40
M05
G90 G1 X13.1 Y23.5 F500
M03 S255
G90 G1 X11.7 Y23.5 F40
M05
G90 G1 X11.7 Y23.7 F500
M03 S255
G90 G1 X13.1 Y23.7 F40
M05
G90 G1 X13.1 Y23.9 F500
M03 S255
G90 G1 X11.7 Y23.9 F40
M05
G90 G1 X11.8 Y24.1 F500
M03 S255
G90 G1 X13.2 Y24.1 F40
M05
G90 G1 X13.3 Y24.3 F500
M03 S255
G90 G1 X11.8 Y24.3 F40
M05
G90 G1 X11.9 Y24.5 F500
M03 S255
G90 G1 X13.4 Y24.5 F40
M05
G90 G1 X13.5 Y24.7 F500
M03 S255
G90 G1 X11.9 Y24.7 F40
M05
G90 G1 X12.1 Y24.9 F500
M03 S255
G90 G1 X13.6 Y24.9 F40
M05
G90 G1 X13.8 Y25.1 F500
M03 S255
G90 G1 X12.2 Y25.1 F40
M05
G90 G1 X12.3 Y25.3 F500
M03 S255
G90 G1 X14.0 Y25.3 F40
M05
G90 G1 X14.2 Y25.5 F500
M03 S255
G90 G1 X12.4 Y25.5 F40
M05
G90 G1 X12.6 Y25.7 F500
M03 S255
G90 G1 X14.4 Y25.7 F40
M05
G90 G1 X14.7 Y25.9 F500
M03 S255
G90 G1 X12.7 Y25.9 F40
M05
G90 G1 X12.8 Y26.1 F500
M03 S255
G90 G1 X15.0 Y26.1 F40
M05
G90 G1 X15.5 Y26.3 F500
M03 S255
G90 G1 X13.1 Y26.3 F40
M05
G90 G1 X13.2 Y26.5 F500
M03 S255
G90 G1 X16.0 Y26.5 F40
M05
G90 G1 X16.5 Y26.7 F500
M03 S255
G90 G1 X13.5 Y26.7 F40
M05
G90 G1 X13.8 Y26.9 F500
M03 S255
G90 G1 X17.2 Y26.9 F40
M05
G90 G1 X17.6 Y27.1 F500
M03 S255
G90 G1 X14.1 Y27.1 F40
M05
G90 G1 X14.5 Y27.3 F500
M03 S255
G90 G1 X18.1 Y27.3 F40
M05
G90 G1 X18.5 Y27.5 F500
M03 S255
G90 G1 X14.7 Y27.5 F40
M05
G90 G1 X15.3 Y27.7 F500
M03 S255
G90 G1 X18.9 Y27.7 F40
M05
G90 G1 X19.2 Y27.9 F500
M03 S255
G90 G1 X15.9 Y27.9 F40
M05
G90 G1 X16.4 Y28.1 F500
M03 S255
G90 G1 X19.4 Y28.1 F40
M05
G90 G1 X19.6 Y28.3 F500
M03 S255
G90 G1 X17.0 Y28.3 F40
M05
G90 G1 X17.4 Y28.5 F500
M03 S255
G90 G1 X19.8 Y28.5 F40
M05
G90 G1 X20.0 Y28.7 F500
M03 S255
G90 G1 X17.9 Y28.7 F40
M05
G90 G1 X18.3 Y28.9 F500
M03 S255
G90 G1 X20.2 Y28.9 F40
M05
G90 G1 X20.4 Y29.1 F500
M03 S255
G90 G1 X18.5 Y29.1 F40
M05
G90 G1 X18.8 Y29.3 F500
M03 S255
G90 G1 X20.5 Y29.3 F40
M05
G90 G1 X20.7 Y29.5 F500
M03 S255
G90 G1 X18.9 Y29.5 F40
M05
G90 G1 X19.1 Y29.7 F500
M03 S255
G90 G1 X20.8 Y29.7 F40
M05
G90 G1 X20.9 Y29.9 F500
M03 S255
G90 G1 X19.3 Y29.9 F40
M05
G90 G1 X19.4 Y30.1 F500
M03 S255
G90 G1 X21.1 Y30.1 F40
M05
G90 G1 X21.3 Y30.3 F500
M03 S255
G90 G1 X19.5 Y30.3 F40
M05
G90 G1 X19.7 Y30.5 F500
M03 S255
G90 G1 X21.4 Y30.5 F40
M05
G90 G1 X21.5 Y30.7 F500
M03 S255
G90 G1 X19.9 Y30.7 F40
M05
G90 G1 X20.0 Y30.9 F500
M03 S255
G90 G1 X21.7 Y30.9 F40
M05
G90 G1 X21.9 Y31.1 F500
M03 S255
G90 G1 X20.1 Y31.1 F40
M05
G90 G1 X20.3 Y31.3 F500
M03 S255
G90 G1 X22.0 Y31.3 F40
M05
G90 G1 X22.2 Y31.5 F500
M03 S255
G90 G1 X20.5 Y31.5 F40
M05
G90 G1 X20.6 Y31.7 F500
M03 S255
G90 G1 X22.4 Y31.7 F40
M05
G90 G1 X22.5 Y31.9 F500
M03 S255
G90 G1 X20.7 Y31.9 F40
M05
G90 G1 X20.9 Y32.1 F500
M03 S255
G90 G1 X22.8 Y32.1 F40
M05
G90 G1 X23.0 Y32.3 F500
M03 S255
G90 G1 X21.1 Y32.3 F40
M05
G90 G1 X21.2 Y32.5 F500
M03 S255
G90 G1 X23.3 Y32.5 F40
M05
G90 G1 X23.6 Y32.7 F500
M03 S255
G90 G1 X21.4 Y32.7 F40
M05
G90 G1 X29.9 Y36.9 F500
M03 S255
G90 G1 X31.0 Y36.9 F40
M05
G90 G1 X31.0 Y36.7 F500
M03 S255
G90 G1 X30.0 Y36.7 F40
M05
G90 G1 X30.1 Y36.5 F500
M03 S255
G90 G1 X31.0 Y36.5 F40
M05
G90 G1 X31.0 Y36.3 F500
M03 S255
G90 G1 X30.2 Y36.3 F40
M05
G90 G1 X30.4 Y36.1 F500
M03 S255
G90 G1 X30.9 Y36.1 F40
M05
G90 G1 X30.9 Y35.9 F500
M03 S255
G90 G1 X30.5 Y35.9 F40
M05
G90 G1 X30.6 Y35.7 F500
M03 S255
G90 G1 X30.9 Y35.7 F40
M05
G90 G1 X30.9 Y35.5 F500
M03 S255
G90 G1 X30.8 Y35.5 F40
M05
G90 G1 X31.0 Y37.1 F500
M03 S255
G90 G1 X29.8 Y37.1 F40
M05
G90 G1 X29.7 Y37.3 F500
M03 S255
G90 G1 X31.0 Y37.3 F40
M05
G90 G1 X31.1 Y37.5 F500
M03 S255
G90 G1 X29.7 Y37.5 F40
M05
G90 G1 X29.6 Y37.7 F500
M03 S255
G90 G1 X31.1 Y37.7 F40
M05
G90 G1 X31.1 Y37.9 F500
M03 S255
G90 G1 X29.5 Y37.9 F40
M05
G90 G1 X29.5 Y38.1 F500
M03 S255
G90 G1 X31.2 Y38.1 F40
M05
G90 G1 X31.2 Y38.3 F500
M03 S255
G90 G1 X29.4 Y38.3 F40
M05
G90 G1 X29.3 Y38.5 F500
M03 S255
G90 G1 X31.2 Y38.5 F40
M05
G90 G1 X31.2 Y38.7 F500
M03 S255
G90 G1 X29.2 Y38.7 F40
M05
G90 G1 X29.2 Y38.9 F500
M03 S255
G90 G1 X31.3 Y38.9 F40
M05
G90 G1 X31.3 Y39.1 F500
M03 S255
G90 G1 X29.2 Y39.1 F40
M05
G90 G1 X29.1 Y39.3 F500
M03 S255
G90 G1 X31.3 Y39.3 F40
M05
G90 G1 X31.3 Y39.5 F500
M03 S255
G90 G1 X29.1 Y39.5 F40
M05
G90 G1 X29.1 Y39.7 F500
M03 S255
G90 G1 X31.4 Y39.7 F40
M05
G90 G1 X31.4 Y39.9 F500
M03 S255
G90 G1 X29.0 Y39.9 F40
M05
G90 G1 X29.0 Y40.1 F500
M03 S255
G90 G1 X31.5 Y40.1 F40
M05
G90 G1 X31.5 Y40.3 F500
M03 S255
G90 G1 X29.0 Y40.3 F40
M05
G90 G1 X29.0 Y40.5 F500
M03 S255
G90 G1 X31.5 Y40.5 F40
M05
G90 G1 X31.6 Y40.7 F500
M03 S255
G90 G1 X28.9 Y40.7 F40
M05
G90 G1 X28.9 Y40.9 F500
M03 S255
G90 G1 X31.6 Y40.9 F40
M05
G90 G1 X31.7 Y41.1 F500
M03 S255
G90 G1 X28.9 Y41.1 F40
M05
G90 G1 X28.9 Y41.3 F500
M03 S255
G90 G1 X31.7 Y41.3 F40
M05
G90 G1 X31.8 Y41.5 F500
M03 S255
G90 G1 X28.9 Y41.5 F40
M05
G90 G1 X28.9 Y41.7 F500
M03 S255
G90 G1 X31.8 Y41.7 F40
M05
G90 G1 X31.9 Y41.9 F500
M03 S255
G90 G1 X28.9 Y41.9 F40
M05
G90 G1 X28.9 Y42.1 F500
M03 S255
G90 G1 X31.9 Y42.1 F40
M05
G90 G1 X32.0 Y42.3 F500
M03 S255
G90 G1 X28.9 Y42.3 F40
M05
G90 G1 X28.9 Y42.5 F500
M03 S255
G90 G1 X32.0 Y42.5 F40
M05
G90 G1 X32.1 Y42.7 F500
M03 S255
G90 G1 X29.0 Y42.7 F40
M05
G90 G1 X29.0 Y42.9 F500
M03 S255
G90 G1 X32.2 Y42.9 F40
M05
G90 G1 X32.2 Y43.1 F500
M03 S255
G90 G1 X29.0 Y43.1 F40
M05
G90 G1 X29.0 Y43.3 F500
M03 S255
G90 G1 X32.3 Y43.3 F40
M05
G90 G1 X32.3 Y43.5 F500
M03 S255
G90 G1 X29.0 Y43.5 F40
M05
G90 G1 X29.1 Y43.7 F500
M03 S255
G90 G1 X32.4 Y43.7 F40
M05
G90 G1 X32.4 Y43.9 F500
M03 S255
G90 G1 X29.1 Y43.9 F40
M05
G90 G1 X29.1 Y44.1 F500
M03 S255
G90 G1 X32.5 Y44.1 F40
M05
G90 G1 X32.6 Y44.3 F500
M03 S255
G90 G1 X29.2 Y44.3 F40
M05
G90 G1 X29.2 Y44.5 F500
M03 S255
G90 G1 X32.7 Y44.5 F40
M05
G90 G1 X32.7 Y44.7 F500
M03 S255
G90 G1 X29.2 Y44.7 F40
M05
G90 G1 X29.3 Y44.9 F500
M03 S255
G90 G1 X32.8 Y44.9 F40
M05
G90 G1 X32.9 Y45.1 F500
M03 S255
G90 G1 X29.3 Y45.1 F40
M05
G90 G1 X29.4 Y45.3 F500
M03 S255
G90 G1 X32.9 Y45.3 F40
M05
G90 G1 X33.0 Y45.5 F500
M03 S255
G90 G1 X29.4 Y45.5 F40
M05
G90 G1 X29.5 Y45.7 F500
M03 S255
G90 G1 X33.1 Y45.7 F40
M05
G90 G1 X33.2 Y45.9 F500
M03 S255
G90 G1 X29.5 Y45.9 F40
M05
G90 G1 X29.6 Y46.1 F500
M03 S255
G90 G1 X33.3 Y46.1 F40
M05
G90 G1 X33.3 Y46.3 F500
M03 S255
G90 G1 X29.6 Y46.3 F40
M05
G90 G1 X29.7 Y46.5 F500
M03 S255
G90 G1 X33.4 Y46.5 F40
M05
G90 G1 X33.5 Y46.7 F500
M03 S255
G90 G1 X29.8 Y46.7 F40
M05
G90 G1 X29.8 Y46.9 F500
M03 S255
G90 G1 X33.6 Y46.9 F40
M05
G90 G1 X33.7 Y47.1 F500
M03 S255
G90 G1 X29.9 Y47.1 F40
M05
G90 G1 X30.0 Y47.3 F500
M03 S255
G90 G1 X33.8 Y47.3 F40
M05
G90 G1 X33.9 Y47.5 F500
M03 S255
G90 G1 X30.1 Y47.5 F40
M05
G90 G1 X30.1 Y47.7 F500
M03 S255
G90 G1 X33.9 Y47.7 F40
M05
G90 G1 X34.0 Y47.9 F500
M03 S255
G90 G1 X30.2 Y47.9 F40
M05
G90 G1 X30.3 Y48.1 F500
M03 S255
G90 G1 X34.1 Y48.1 F40
M05
G90 G1 X34.2 Y48.3 F500
M03 S255
G90 G1 X30.4 Y48.3 F40
M05
G90 G1 X30.5 Y48.5 F500
M03 S255
G90 G1 X34.3 Y48.5 F40
M05
G90 G1 X34.4 Y48.7 F500
M03 S255
G90 G1 X30.5 Y48.7 F40
M05
G90 G1 X30.6 Y48.9 F500
M03 S255
G90 G1 X34.5 Y48.9 F40
M05
G90 G1 X34.6 Y49.1 F500
M03 S255
G90 G1 X30.7 Y49.1 F40
M05
G90 G1 X30.8 Y49.3 F500
M03 S255
G90 G1 X34.7 Y49.3 F40
M05
G90 G1 X34.8 Y49.5 F500
M03 S255
G90 G1 X30.9 Y49.5 F40
M05
G90 G1 X31.0 Y49.7 F500
M03 S255
G90 G1 X34.9 Y49.7 F40
M05
G90 G1 X35.0 Y49.9 F500
M03 S255
G90 G1 X31.1 Y49.9 F40
M05
G90 G1 X31.2 Y50.1 F500
M03 S255
G90 G1 X35.0 Y50.1 F40
M05
G90 G1 X35.1 Y50.3 F500
M03 S255
G90 G1 X31.3 Y50.3 F40
M05
G90 G1 X31.4 Y50.5 F500
M03 S255
G90 G1 X35.2 Y50.5 F40
M05
G90 G1 X35.3 Y50.7 F500
M03 S255
G90 G1 X31.5 Y50.7 F40
M05
G90 G1 X31.6 Y50.9 F500
M03 S255
G90 G1 X35.4 Y50.9 F40
M05
G90 G1 X35.5 Y51.1 F500
M03 S255
G90 G1 X31.7 Y51.1 F40
M05
G90 G1 X31.8 Y51.3 F500
M03 S255
G90 G1 X35.6 Y51.3 F40
M05
G90 G1 X35.7 Y51.5 F500
M03 S255
G90 G1 X31.9 Y51.5 F40
M05
G90 G1 X32.0 Y51.7 F500
M03 S255
G90 G1 X35.8 Y51.7 F40
M05
G90 G1 X35.9 Y51.9 F500
M03 S255
G90 G1 X32.1 Y51.9 F40
M05
G90 G1 X32.2 Y52.1 F500
M03 S255
G90 G1 X36.0 Y52.1 F40
M05
G90 G1 X36.1 Y52.3 F500
M03 S255
G90 G1 X32.3 Y52.3 F40
M05
G90 G1 X32.4 Y52.5 F500
M03 S255
G90 G1 X36.1 Y52.5 F40
M05
G90 G1 X36.2 Y52.7 F500
M03 S255
G90 G1 X32.6 Y52.7 F40
M05
G90 G1 X32.6 Y52.9 F500
M03 S255
G90 G1 X36.3 Y52.9 F40
M05
G90 G1 X36.4 Y53.1 F500
M03 S255
G90 G1 X32.7 Y53.1 F40
M05
G90 G1 X32.8 Y53.3 F500
M03 S255
G90 G1 X36.5 Y53.3 F40
M05
G90 G1 X36.6 Y53.5 F500
M03 S255
G90 G1 X32.9 Y53.5 F40
M05
G90 G1 X33.0 Y53.7 F500
M03 S255
G90 G1 X36.7 Y53.7 F40
M05
G90 G1 X36.8 Y53.9 F500
M03 S255
G90 G1 X33.1 Y53.9 F40
M05
G90 G1 X33.2 Y54.1 F500
M03 S255
G90 G1 X36.9 Y54.1 F40
M05
G90 G1 X24.0 Y8.5 F500
M03 S255
G90 G1 X15.0 Y8.5 F40
M05
G90 G1 X14.5 Y8.7 F500
M03 S255
G90 G1 X23.2 Y8.7 F40
M05
G90 G1 X22.1 Y8.9 F500
M03 S255
G90 G1 X13.8 Y8.9 F40
M05
G90 G1 X16.2 Y8.3 F500
M03 S255
G90 G1 X24.6 Y8.3 F40
M05

; END IMAGE

G28
